------------------------------------------------------------------------
r1227941 | dakon | 2011-04-15 05:56:34 +1200 (Fri, 15 Apr 2011) | 5 lines

fix sentence talking about keys when messages are meant

BUG:270914
CCMAIL:kde-i18n-doc@kde.org

------------------------------------------------------------------------
r1229552 | scripty | 2011-04-28 04:45:20 +1200 (Thu, 28 Apr 2011) | 1 line

SVN_SILENT made messages (.desktop file)
------------------------------------------------------------------------
