------------------------------------------------------------------------
r1218768 | scripty | 2011-02-05 00:27:33 +1300 (Sat, 05 Feb 2011) | 1 line

SVN_SILENT made messages (.desktop file)
------------------------------------------------------------------------
r1219106 | scripty | 2011-02-07 00:21:58 +1300 (Mon, 07 Feb 2011) | 1 line

SVN_SILENT made messages (.desktop file)
------------------------------------------------------------------------
