------------------------------------------------------------------------
r1055447 | scripty | 2009-11-28 04:11:51 +0000 (Sat, 28 Nov 2009) | 1 line

SVN_SILENT made messages (.desktop file)
------------------------------------------------------------------------
r1055883 | swilson | 2009-11-28 22:44:36 +0000 (Sat, 28 Nov 2009) | 2 lines

Added Egyptian theme files to the CMakeList.txt. This was missed for some reason.

------------------------------------------------------------------------
r1062187 | scripty | 2009-12-14 04:18:43 +0000 (Mon, 14 Dec 2009) | 1 line

SVN_SILENT made messages (.desktop file)
------------------------------------------------------------------------
r1064070 | scripty | 2009-12-20 04:11:38 +0000 (Sun, 20 Dec 2009) | 1 line

SVN_SILENT made messages (.desktop file)
------------------------------------------------------------------------
r1065966 | scripty | 2009-12-25 04:05:51 +0000 (Fri, 25 Dec 2009) | 1 line

SVN_SILENT made messages (.desktop file)
------------------------------------------------------------------------
r1067641 | scripty | 2009-12-30 04:19:16 +0000 (Wed, 30 Dec 2009) | 1 line

SVN_SILENT made messages (.desktop file)
------------------------------------------------------------------------
r1068821 | scripty | 2010-01-02 03:58:27 +0000 (Sat, 02 Jan 2010) | 1 line

SVN_SILENT made messages (.desktop file)
------------------------------------------------------------------------
r1070588 | scripty | 2010-01-06 04:59:17 +0000 (Wed, 06 Jan 2010) | 1 line

SVN_SILENT made messages (.desktop file)
------------------------------------------------------------------------
r1072375 | scripty | 2010-01-10 04:09:11 +0000 (Sun, 10 Jan 2010) | 1 line

SVN_SILENT made messages (.desktop file)
------------------------------------------------------------------------
r1074983 | scripty | 2010-01-15 04:02:02 +0000 (Fri, 15 Jan 2010) | 1 line

SVN_SILENT made messages (.desktop file)
------------------------------------------------------------------------
r1075424 | scripty | 2010-01-16 03:56:58 +0000 (Sat, 16 Jan 2010) | 1 line

SVN_SILENT made messages (.desktop file)
------------------------------------------------------------------------
r1076367 | scripty | 2010-01-18 04:08:35 +0000 (Mon, 18 Jan 2010) | 1 line

SVN_SILENT made messages (.desktop file)
------------------------------------------------------------------------
r1077162 | majewsky | 2010-01-19 14:28:39 +0000 (Tue, 19 Jan 2010) | 3 lines

Backport r1077159 to 4.3 branch.
CCBUG: 223397

------------------------------------------------------------------------
