------------------------------------------------------------------------
r1231896 | scripty | 2011-05-15 02:35:40 +1200 (Sun, 15 May 2011) | 1 line

SVN_SILENT made messages (.desktop file)
------------------------------------------------------------------------
