------------------------------------------------------------------------
r1108169 | scripty | 2010-03-28 15:36:31 +1300 (Sun, 28 Mar 2010) | 1 line

SVN_SILENT made messages (.desktop file)
------------------------------------------------------------------------
r1109767 | scripty | 2010-04-01 15:09:32 +1300 (Thu, 01 Apr 2010) | 1 line

SVN_SILENT made messages (.desktop file)
------------------------------------------------------------------------
r1109981 | pino | 2010-04-02 01:55:52 +1300 (Fri, 02 Apr 2010) | 2 lines

the KDE category requires the Qt one

------------------------------------------------------------------------
r1110145 | scripty | 2010-04-02 14:59:49 +1300 (Fri, 02 Apr 2010) | 1 line

SVN_SILENT made messages (.desktop file)
------------------------------------------------------------------------
r1110424 | scripty | 2010-04-03 14:50:58 +1300 (Sat, 03 Apr 2010) | 1 line

SVN_SILENT made messages (.desktop file)
------------------------------------------------------------------------
r1110493 | majewsky | 2010-04-03 21:00:14 +1300 (Sat, 03 Apr 2010) | 4 lines

Backport revision 1108649 to 4.4 branch, for release with KDE SC 4.4.3.

CCBUG: 216729

------------------------------------------------------------------------
r1111669 | dimsuz | 2010-04-07 00:21:12 +1200 (Wed, 07 Apr 2010) | 4 lines

Backport a crash fix from trunk (r1111668)

CCBUG: 230046

------------------------------------------------------------------------
r1113202 | scripty | 2010-04-10 13:50:24 +1200 (Sat, 10 Apr 2010) | 1 line

SVN_SILENT made messages (.desktop file)
------------------------------------------------------------------------
r1113475 | scripty | 2010-04-11 13:58:51 +1200 (Sun, 11 Apr 2010) | 1 line

SVN_SILENT made messages (.desktop file)
------------------------------------------------------------------------
r1113948 | jobermayr | 2010-04-12 22:47:12 +1200 (Mon, 12 Apr 2010) | 1 line

Backport 1113739.
------------------------------------------------------------------------
r1114960 | scripty | 2010-04-15 13:42:04 +1200 (Thu, 15 Apr 2010) | 1 line

SVN_SILENT made messages (.desktop file)
------------------------------------------------------------------------
r1115600 | scripty | 2010-04-17 13:42:32 +1200 (Sat, 17 Apr 2010) | 1 line

SVN_SILENT made messages (.desktop file)
------------------------------------------------------------------------
r1116273 | scripty | 2010-04-19 13:51:35 +1200 (Mon, 19 Apr 2010) | 1 line

SVN_SILENT made messages (.desktop file)
------------------------------------------------------------------------
r1117332 | scripty | 2010-04-22 09:37:57 +1200 (Thu, 22 Apr 2010) | 1 line

SVN_SILENT made messages (.desktop file)
------------------------------------------------------------------------
r1118219 | scripty | 2010-04-24 14:03:20 +1200 (Sat, 24 Apr 2010) | 1 line

SVN_SILENT made messages (.desktop file)
------------------------------------------------------------------------
r1119951 | scripty | 2010-04-28 13:55:16 +1200 (Wed, 28 Apr 2010) | 1 line

SVN_SILENT made messages (.desktop file)
------------------------------------------------------------------------
