------------------------------------------------------------------------
r854908 | lueck | 2008-08-30 17:17:33 +0200 (Sat, 30 Aug 2008) | 1 line

documentation backport fron trunk
------------------------------------------------------------------------
