------------------------------------------------------------------------
r1042794 | fric | 2009-10-30 18:22:24 +0000 (Fri, 30 Oct 2009) | 1 line

Updated Slovak translation
------------------------------------------------------------------------
r1042817 | jferrer | 2009-10-30 19:19:49 +0000 (Fri, 30 Oct 2009) | 2 lines

Updates by Josep Ma. Ferrer

------------------------------------------------------------------------
r1042867 | fdekruijf | 2009-10-30 22:31:41 +0000 (Fri, 30 Oct 2009) | 1 line

update
------------------------------------------------------------------------
r1042894 | scripty | 2009-10-31 00:32:34 +0000 (Sat, 31 Oct 2009) | 1 line

SVN_SILENT made messages (.pot file)
------------------------------------------------------------------------
r1042895 | scripty | 2009-10-31 00:34:01 +0000 (Sat, 31 Oct 2009) | 1 line

SVN_SILENT made messages (desktop*.pot file committed)
------------------------------------------------------------------------
r1042916 | zpintar | 2009-10-31 02:26:54 +0000 (Sat, 31 Oct 2009) | 1 line

Updated Croatian translations for kde4-stable.
------------------------------------------------------------------------
r1042923 | scripty | 2009-10-31 04:00:18 +0000 (Sat, 31 Oct 2009) | 1 line

SVN_SILENT made messages (.po file)
------------------------------------------------------------------------
r1042937 | fdekruijf | 2009-10-31 06:16:42 +0000 (Sat, 31 Oct 2009) | 1 line

update
------------------------------------------------------------------------
r1043028 | gianni | 2009-10-31 14:45:13 +0000 (Sat, 31 Oct 2009) | 1 line

added a new string. Why? This is the branch not the trunk :(
------------------------------------------------------------------------
r1043040 | bando | 2009-10-31 15:26:41 +0000 (Sat, 31 Oct 2009) | 1 line

SVN_SILENT: Summit scatter.
------------------------------------------------------------------------
r1043092 | jferrer | 2009-10-31 18:19:06 +0000 (Sat, 31 Oct 2009) | 2 lines

Updates by Josep Ma. Ferrer

------------------------------------------------------------------------
r1043145 | soytetir | 2009-10-31 21:26:03 +0000 (Sat, 31 Oct 2009) | 1 line

merge : some updates
------------------------------------------------------------------------
r1043171 | soytetir | 2009-10-31 23:00:18 +0000 (Sat, 31 Oct 2009) | 1 line

merge : updates by Muhammet Kara
------------------------------------------------------------------------
r1043186 | scripty | 2009-11-01 00:31:50 +0000 (Sun, 01 Nov 2009) | 1 line

SVN_SILENT made messages (.pot file)
------------------------------------------------------------------------
r1043188 | scripty | 2009-11-01 00:33:20 +0000 (Sun, 01 Nov 2009) | 1 line

SVN_SILENT made messages (desktop*.pot file committed)
------------------------------------------------------------------------
r1043201 | zpintar | 2009-11-01 02:26:07 +0000 (Sun, 01 Nov 2009) | 1 line

Updated Croatian translations for kde4-stable.
------------------------------------------------------------------------
r1043209 | scripty | 2009-11-01 03:59:06 +0000 (Sun, 01 Nov 2009) | 1 line

SVN_SILENT made messages (.po file)
------------------------------------------------------------------------
r1043217 | scripty | 2009-11-01 04:38:32 +0000 (Sun, 01 Nov 2009) | 1 line

check_po_files
------------------------------------------------------------------------
r1043259 | fzenith | 2009-11-01 09:47:15 +0000 (Sun, 01 Nov 2009) | 3 lines

Some suggestions from Valter
CCMAIL: valtermura@gmail.com

------------------------------------------------------------------------
r1043495 | aacid | 2009-11-01 18:11:49 +0000 (Sun, 01 Nov 2009) | 2 lines

these files don't belong into stable

------------------------------------------------------------------------
r1043506 | yurchor | 2009-11-01 18:42:47 +0000 (Sun, 01 Nov 2009) | 1 line

Ukrainian translation update for stable
------------------------------------------------------------------------
r1043519 | jferrer | 2009-11-01 18:56:52 +0000 (Sun, 01 Nov 2009) | 2 lines

Updates by Josep Ma. Ferrer (change "salvapantalles" to "estalvi de pantalla")

------------------------------------------------------------------------
r1043526 | mrybczyn | 2009-11-01 19:11:23 +0000 (Sun, 01 Nov 2009) | 2 lines

Initial translation (Maciej Wiklo)

------------------------------------------------------------------------
r1043531 | mrybczyn | 2009-11-01 19:16:20 +0000 (Sun, 01 Nov 2009) | 2 lines

Translation update (Krzysztof  Wozniak)

------------------------------------------------------------------------
r1043534 | mrybczyn | 2009-11-01 19:23:15 +0000 (Sun, 01 Nov 2009) | 2 lines

Newly generated documentation

------------------------------------------------------------------------
r1043535 | mrybczyn | 2009-11-01 19:24:01 +0000 (Sun, 01 Nov 2009) | 2 lines

Newly generated documentation

------------------------------------------------------------------------
r1043536 | mrybczyn | 2009-11-01 19:24:51 +0000 (Sun, 01 Nov 2009) | 2 lines

Newly generated documentation

------------------------------------------------------------------------
r1043539 | mrybczyn | 2009-11-01 19:35:26 +0000 (Sun, 01 Nov 2009) | 2 lines

Newly generated documentation

------------------------------------------------------------------------
r1043542 | mrybczyn | 2009-11-01 19:43:10 +0000 (Sun, 01 Nov 2009) | 2 lines

Fixing bug found by Grzegorz Bak

------------------------------------------------------------------------
r1043571 | asereda | 2009-11-01 21:11:13 +0000 (Sun, 01 Nov 2009) | 2 lines

SVN_SILENT Update Lokalize translanion by Pavel Maleev with my corrections

------------------------------------------------------------------------
r1043612 | montanaro | 2009-11-01 23:45:33 +0000 (Sun, 01 Nov 2009) | 3 lines

Updates by Daniele Micci
CCMAIL: Daniele Micci <daniele.micci@tiscali.it>

------------------------------------------------------------------------
r1043617 | scripty | 2009-11-02 00:34:01 +0000 (Mon, 02 Nov 2009) | 1 line

SVN_SILENT made messages (.pot file)
------------------------------------------------------------------------
r1043618 | scripty | 2009-11-02 00:37:11 +0000 (Mon, 02 Nov 2009) | 1 line

SVN_SILENT made messages (desktop*.pot file committed)
------------------------------------------------------------------------
r1043628 | zpintar | 2009-11-02 02:26:45 +0000 (Mon, 02 Nov 2009) | 1 line

Updated Croatian translations for kde4-stable.
------------------------------------------------------------------------
r1043632 | scripty | 2009-11-02 04:12:57 +0000 (Mon, 02 Nov 2009) | 1 line

SVN_SILENT made messages (.po file)
------------------------------------------------------------------------
r1043650 | yurchor | 2009-11-02 07:46:25 +0000 (Mon, 02 Nov 2009) | 1 line

Ukrainian translation update for stable
------------------------------------------------------------------------
r1043882 | pelcak | 2009-11-02 15:34:14 +0000 (Mon, 02 Nov 2009) | 1 line

Minor fix in Kmail by Vit Pelcak
------------------------------------------------------------------------
r1043898 | soytetir | 2009-11-02 16:34:10 +0000 (Mon, 02 Nov 2009) | 1 line

merge : some updates
------------------------------------------------------------------------
r1043940 | kenkovaa | 2009-11-02 18:06:52 +0000 (Mon, 02 Nov 2009) | 2 lines

Updates from Tommi Nieminen

------------------------------------------------------------------------
r1044008 | jferrer | 2009-11-02 20:46:38 +0000 (Mon, 02 Nov 2009) | 2 lines

Updates by Josep Ma. Ferrer

------------------------------------------------------------------------
r1044042 | asserhal | 2009-11-02 22:02:14 +0000 (Mon, 02 Nov 2009) | 1 line

SVN_SILENT updated translations
------------------------------------------------------------------------
r1044054 | soytetir | 2009-11-02 22:25:55 +0000 (Mon, 02 Nov 2009) | 1 line

merge : add missing files, updates
------------------------------------------------------------------------
r1044068 | asereda | 2009-11-02 22:42:42 +0000 (Mon, 02 Nov 2009) | 2 lines

SVN_SILENT Update translation by Pavel Maleev with my changes

------------------------------------------------------------------------
r1044080 | asereda | 2009-11-02 23:18:09 +0000 (Mon, 02 Nov 2009) | 2 lines

SVN_SILENT Update marble translation

------------------------------------------------------------------------
r1044090 | scripty | 2009-11-03 00:31:19 +0000 (Tue, 03 Nov 2009) | 1 line

SVN_SILENT made messages (.pot file)
------------------------------------------------------------------------
r1044104 | zpintar | 2009-11-03 02:24:14 +0000 (Tue, 03 Nov 2009) | 1 line

Updated Croatian translations for kde4-stable.
------------------------------------------------------------------------
r1044111 | scripty | 2009-11-03 03:56:02 +0000 (Tue, 03 Nov 2009) | 1 line

SVN_SILENT made messages (.po file)
------------------------------------------------------------------------
r1044115 | fdekruijf | 2009-11-03 04:03:01 +0000 (Tue, 03 Nov 2009) | 1 line

update
------------------------------------------------------------------------
r1044130 | fzenith | 2009-11-03 06:58:24 +0000 (Tue, 03 Nov 2009) | 1 line

Update
------------------------------------------------------------------------
r1044291 | ilic | 2009-11-03 11:20:37 +0000 (Tue, 03 Nov 2009) | 1 line

SVN_SILENT: Merge.
------------------------------------------------------------------------
r1044390 | pvidalis | 2009-11-03 16:27:29 +0000 (Tue, 03 Nov 2009) | 1 line


------------------------------------------------------------------------
r1044451 | ltoscano | 2009-11-03 20:07:53 +0000 (Tue, 03 Nov 2009) | 6 lines

Remove obsolete docbooks.
(see: http://lists.kde.org/?l=kde-i18n-doc&m=125588880532159&w=2)

CCMAIL: kde-i18n-it@kde.org


------------------------------------------------------------------------
r1044482 | huftis | 2009-11-03 21:44:55 +0000 (Tue, 03 Nov 2009) | 1 line

Updated Norwegian Nynorsk translations for kde4-stable.
------------------------------------------------------------------------
r1044490 | huftis | 2009-11-03 22:02:35 +0000 (Tue, 03 Nov 2009) | 1 line

Updated Norwegian Bokmål translations for kde4-stable.
------------------------------------------------------------------------
r1044542 | scripty | 2009-11-04 00:30:30 +0000 (Wed, 04 Nov 2009) | 1 line

SVN_SILENT made messages (.pot file)
------------------------------------------------------------------------
r1044543 | scripty | 2009-11-04 00:31:57 +0000 (Wed, 04 Nov 2009) | 1 line

SVN_SILENT made messages (desktop*.pot file committed)
------------------------------------------------------------------------
r1044549 | franklin | 2009-11-04 00:59:09 +0000 (Wed, 04 Nov 2009) | 2 lines

20091104 committed by Franklin

------------------------------------------------------------------------
r1044559 | zpintar | 2009-11-04 02:24:53 +0000 (Wed, 04 Nov 2009) | 1 line

Updated Croatian translations for kde4-stable.
------------------------------------------------------------------------
r1044570 | scripty | 2009-11-04 04:05:16 +0000 (Wed, 04 Nov 2009) | 1 line

SVN_SILENT made messages (.po file)
------------------------------------------------------------------------
r1044575 | sairan | 2009-11-04 05:00:55 +0000 (Wed, 04 Nov 2009) | 1 line

add Kazakh translations
------------------------------------------------------------------------
r1044576 | scripty | 2009-11-04 05:02:51 +0000 (Wed, 04 Nov 2009) | 1 line

check_po_files
------------------------------------------------------------------------
r1044683 | lueck | 2009-11-04 13:25:19 +0000 (Wed, 04 Nov 2009) | 2 lines

fix typo and wrong translation spotted by Markus, thanks
CCMAIL:kamikazow@web.de
------------------------------------------------------------------------
r1044802 | soytetir | 2009-11-04 17:05:51 +0000 (Wed, 04 Nov 2009) | 1 line

merge : add some missing files, kill some fuzzies
------------------------------------------------------------------------
r1044834 | yurchor | 2009-11-04 18:37:45 +0000 (Wed, 04 Nov 2009) | 1 line

Ukrainian translation update for stable
------------------------------------------------------------------------
r1044922 | coles | 2009-11-04 22:16:04 +0000 (Wed, 04 Nov 2009) | 3 lines

Added missing files and translated untranslated messages in en_GB stable.


------------------------------------------------------------------------
r1044938 | ilic | 2009-11-04 23:24:09 +0000 (Wed, 04 Nov 2009) | 1 line

SVN_SILENT: Pmap updates.
------------------------------------------------------------------------
r1044945 | s_dibbern | 2009-11-05 00:04:45 +0000 (Thu, 05 Nov 2009) | 1 line

Scattered changes from stable revision 1044943.
------------------------------------------------------------------------
r1044947 | scripty | 2009-11-05 00:32:51 +0000 (Thu, 05 Nov 2009) | 1 line

SVN_SILENT made messages (.pot file)
------------------------------------------------------------------------
r1044948 | scripty | 2009-11-05 00:34:36 +0000 (Thu, 05 Nov 2009) | 1 line

SVN_SILENT made messages (desktop*.pot file committed)
------------------------------------------------------------------------
r1044962 | zpintar | 2009-11-05 02:25:51 +0000 (Thu, 05 Nov 2009) | 1 line

Updated Croatian translations for kde4-stable.
------------------------------------------------------------------------
r1044963 | scripty | 2009-11-05 04:09:43 +0000 (Thu, 05 Nov 2009) | 1 line

SVN_SILENT made messages (.po file)
------------------------------------------------------------------------
r1044968 | scripty | 2009-11-05 04:49:29 +0000 (Thu, 05 Nov 2009) | 1 line

check_po_files
------------------------------------------------------------------------
r1044973 | alvarenga | 2009-11-05 05:16:51 +0000 (Thu, 05 Nov 2009) | 1 line

[KDE-pt_BR]
------------------------------------------------------------------------
r1044974 | franklin | 2009-11-05 05:20:55 +0000 (Thu, 05 Nov 2009) | 1 line

20091105 committed by Franklin
------------------------------------------------------------------------
r1044975 | sairan | 2009-11-05 05:38:59 +0000 (Thu, 05 Nov 2009) | 1 line

SVN_SILENT add translations
------------------------------------------------------------------------
r1044995 | franklin | 2009-11-05 08:03:29 +0000 (Thu, 05 Nov 2009) | 1 line

20091105 committed by Franklin
------------------------------------------------------------------------
r1045002 | fzenith | 2009-11-05 08:27:02 +0000 (Thu, 05 Nov 2009) | 3 lines

Committing incomplete doc before moving to trunk
Some consistency fixes in Luciano's GUI file
CCMAIL: mikelima@cirulla.net
------------------------------------------------------------------------
r1045029 | franklin | 2009-11-05 10:03:31 +0000 (Thu, 05 Nov 2009) | 1 line

20091105 committed by Franklin
------------------------------------------------------------------------
r1045178 | huftis | 2009-11-05 12:25:50 +0000 (Thu, 05 Nov 2009) | 1 line

Updated Norwegian Nynorsk translations for kde4-stable.
------------------------------------------------------------------------
r1045194 | huftis | 2009-11-05 12:35:07 +0000 (Thu, 05 Nov 2009) | 1 line

Updated Norwegian Bokmål translations for kde4-stable.
------------------------------------------------------------------------
r1045245 | tszanto | 2009-11-05 15:34:48 +0000 (Thu, 05 Nov 2009) | 1 line

Tamas Szanto
------------------------------------------------------------------------
r1045291 | fric | 2009-11-05 17:51:46 +0000 (Thu, 05 Nov 2009) | 1 line

Updated Slovak translation
------------------------------------------------------------------------
r1045348 | gianni | 2009-11-05 21:11:26 +0000 (Thu, 05 Nov 2009) | 3 lines

some fix by Matteo
CCMAIL:sim.0161@libero.it

------------------------------------------------------------------------
r1045412 | scripty | 2009-11-06 00:32:35 +0000 (Fri, 06 Nov 2009) | 1 line

SVN_SILENT made messages (desktop*.pot file committed)
------------------------------------------------------------------------
r1045423 | zpintar | 2009-11-06 02:25:40 +0000 (Fri, 06 Nov 2009) | 1 line

Updated Croatian translations for kde4-stable.
------------------------------------------------------------------------
r1045429 | scripty | 2009-11-06 03:45:21 +0000 (Fri, 06 Nov 2009) | 1 line

SVN_SILENT made messages (.po file)
------------------------------------------------------------------------
r1045454 | tszanto | 2009-11-06 08:27:52 +0000 (Fri, 06 Nov 2009) | 1 line

Tamas Szanto
------------------------------------------------------------------------
r1045468 | tszanto | 2009-11-06 08:52:11 +0000 (Fri, 06 Nov 2009) | 1 line

Tamas Szanto
------------------------------------------------------------------------
r1045494 | tszanto | 2009-11-06 09:14:13 +0000 (Fri, 06 Nov 2009) | 1 line

Tamas Szanto
------------------------------------------------------------------------
r1045547 | tszanto | 2009-11-06 09:49:12 +0000 (Fri, 06 Nov 2009) | 1 line

Tamas Szanto
------------------------------------------------------------------------
r1045603 | tszanto | 2009-11-06 10:33:09 +0000 (Fri, 06 Nov 2009) | 1 line

Tamas Szanto
------------------------------------------------------------------------
r1045607 | franklin | 2009-11-06 11:08:29 +0000 (Fri, 06 Nov 2009) | 1 line

20091106 committed by Franklin
------------------------------------------------------------------------
r1045634 | schlander | 2009-11-06 12:20:29 +0000 (Fri, 06 Nov 2009) | 2 lines

translation update

------------------------------------------------------------------------
r1045658 | pelcak | 2009-11-06 14:49:12 +0000 (Fri, 06 Nov 2009) | 1 line

Update by Vit Pelcak
------------------------------------------------------------------------
r1045683 | cas | 2009-11-06 15:57:22 +0000 (Fri, 06 Nov 2009) | 1 line

SVN_SILENT Update translation from Pavel Mihaduk
------------------------------------------------------------------------
r1045813 | yurchor | 2009-11-06 20:14:03 +0000 (Fri, 06 Nov 2009) | 1 line

Ukrainian translation update for stable
------------------------------------------------------------------------
r1045873 | jferrer | 2009-11-06 22:10:32 +0000 (Fri, 06 Nov 2009) | 2 lines

Updates by Josep Ma. Ferrer

------------------------------------------------------------------------
r1045956 | scripty | 2009-11-07 00:31:08 +0000 (Sat, 07 Nov 2009) | 1 line

SVN_SILENT made messages (.pot file)
------------------------------------------------------------------------
r1045996 | zpintar | 2009-11-07 02:24:57 +0000 (Sat, 07 Nov 2009) | 1 line

Updated Croatian translations for kde4-stable.
------------------------------------------------------------------------
r1046012 | scripty | 2009-11-07 04:09:25 +0000 (Sat, 07 Nov 2009) | 1 line

SVN_SILENT made messages (.po file)
------------------------------------------------------------------------
r1046104 | bando | 2009-11-07 14:44:55 +0000 (Sat, 07 Nov 2009) | 1 line

SVN_SILENT: Summit scatter.
------------------------------------------------------------------------
r1046194 | azurmendi | 2009-11-07 20:02:50 +0000 (Sat, 07 Nov 2009) | 1 line

Zuzenduta eta osatuta.
------------------------------------------------------------------------
r1046202 | yurchor | 2009-11-07 20:18:50 +0000 (Sat, 07 Nov 2009) | 1 line

Ukrainian translation update for stable
------------------------------------------------------------------------
r1046205 | azurmendi | 2009-11-07 20:27:15 +0000 (Sat, 07 Nov 2009) | 1 line

Zuzenduta eta osatuta.
------------------------------------------------------------------------
r1046213 | azurmendi | 2009-11-07 21:11:03 +0000 (Sat, 07 Nov 2009) | 1 line

Osatuta
------------------------------------------------------------------------
r1046240 | fdekruijf | 2009-11-07 23:51:34 +0000 (Sat, 07 Nov 2009) | 1 line

crach -> crash 2x
------------------------------------------------------------------------
r1046242 | jferrer | 2009-11-08 00:09:25 +0000 (Sun, 08 Nov 2009) | 2 lines

Updates by Josep Ma. Ferrer

------------------------------------------------------------------------
r1046246 | scripty | 2009-11-08 00:30:30 +0000 (Sun, 08 Nov 2009) | 1 line

SVN_SILENT made messages (.pot file)
------------------------------------------------------------------------
r1046247 | scripty | 2009-11-08 00:31:50 +0000 (Sun, 08 Nov 2009) | 1 line

SVN_SILENT made messages (desktop*.pot file committed)
------------------------------------------------------------------------
r1046253 | zpintar | 2009-11-08 02:26:50 +0000 (Sun, 08 Nov 2009) | 1 line

Updated Croatian translations for kde4-stable.
------------------------------------------------------------------------
r1046259 | scripty | 2009-11-08 03:51:04 +0000 (Sun, 08 Nov 2009) | 1 line

SVN_SILENT made messages (.po file)
------------------------------------------------------------------------
r1046300 | mrybczyn | 2009-11-08 11:19:21 +0000 (Sun, 08 Nov 2009) | 2 lines

Translation update (Michal Smoczyk)

------------------------------------------------------------------------
r1046301 | mrybczyn | 2009-11-08 11:20:39 +0000 (Sun, 08 Nov 2009) | 2 lines

Translation update (Michal Smoczyk)

------------------------------------------------------------------------
r1046302 | mrybczyn | 2009-11-08 11:22:28 +0000 (Sun, 08 Nov 2009) | 2 lines

Translation update (Marcin Kocur)

------------------------------------------------------------------------
r1046303 | mrybczyn | 2009-11-08 11:23:33 +0000 (Sun, 08 Nov 2009) | 2 lines

Newly generated documentation

------------------------------------------------------------------------
r1046304 | mrybczyn | 2009-11-08 11:26:50 +0000 (Sun, 08 Nov 2009) | 2 lines

Fixing markup

------------------------------------------------------------------------
r1046305 | mrybczyn | 2009-11-08 11:27:52 +0000 (Sun, 08 Nov 2009) | 2 lines

Newly generated documentation

------------------------------------------------------------------------
r1046307 | mrybczyn | 2009-11-08 11:35:30 +0000 (Sun, 08 Nov 2009) | 2 lines

Translation update (Krzysztof Wozniak)

------------------------------------------------------------------------
r1046308 | mrybczyn | 2009-11-08 11:36:13 +0000 (Sun, 08 Nov 2009) | 2 lines

Newly generated documentation

------------------------------------------------------------------------
r1046315 | mrybczyn | 2009-11-08 11:53:55 +0000 (Sun, 08 Nov 2009) | 2 lines

Translation update (Krzysztof Wozniak)

------------------------------------------------------------------------
r1046355 | azurmendi | 2009-11-08 13:27:00 +0000 (Sun, 08 Nov 2009) | 1 line

Osatuta
------------------------------------------------------------------------
r1046377 | zepires | 2009-11-08 15:11:24 +0000 (Sun, 08 Nov 2009) | 1 line

Updates on BRANCH for now
------------------------------------------------------------------------
r1046446 | jferrer | 2009-11-08 19:26:40 +0000 (Sun, 08 Nov 2009) | 2 lines

Updates by Josep Ma. Ferrer

------------------------------------------------------------------------
r1046460 | soytetir | 2009-11-08 19:47:18 +0000 (Sun, 08 Nov 2009) | 1 line

merge : some updates
------------------------------------------------------------------------
r1046464 | ecuadra | 2009-11-08 20:08:54 +0000 (Sun, 08 Nov 2009) | 1 line

SVN_SILENT Unify some translations
------------------------------------------------------------------------
r1046476 | ecuadra | 2009-11-08 20:41:39 +0000 (Sun, 08 Nov 2009) | 2 lines

SVN_SILENT Translation update by Leticia Martin
CC_MAIL: leticia.martin@gmail.com, jaime@robles.es
------------------------------------------------------------------------
r1046484 | azurmendi | 2009-11-08 20:59:33 +0000 (Sun, 08 Nov 2009) | 1 line

Osatuta
------------------------------------------------------------------------
r1046497 | azurmendi | 2009-11-08 21:44:03 +0000 (Sun, 08 Nov 2009) | 1 line

(ondoren: To-2195, Tr-1981, F-94, U-120)
------------------------------------------------------------------------
r1046499 | schlander | 2009-11-08 21:44:40 +0000 (Sun, 08 Nov 2009) | 2 lines

translation update

------------------------------------------------------------------------
r1046529 | scripty | 2009-11-09 00:31:21 +0000 (Mon, 09 Nov 2009) | 1 line

SVN_SILENT made messages (.pot file)
------------------------------------------------------------------------
r1046536 | zpintar | 2009-11-09 02:26:19 +0000 (Mon, 09 Nov 2009) | 1 line

Updated Croatian translations for kde4-stable.
------------------------------------------------------------------------
r1046541 | scripty | 2009-11-09 03:50:33 +0000 (Mon, 09 Nov 2009) | 1 line

SVN_SILENT made messages (.po file)
------------------------------------------------------------------------
r1046545 | scripty | 2009-11-09 04:28:04 +0000 (Mon, 09 Nov 2009) | 1 line

check_po_files
------------------------------------------------------------------------
r1046554 | franklin | 2009-11-09 05:55:18 +0000 (Mon, 09 Nov 2009) | 1 line

20091109 committed by Franklin
------------------------------------------------------------------------
r1046648 | yurchor | 2009-11-09 12:07:20 +0000 (Mon, 09 Nov 2009) | 1 line

Ukrainian translation update for stable
------------------------------------------------------------------------
r1046667 | schlander | 2009-11-09 13:12:33 +0000 (Mon, 09 Nov 2009) | 2 lines

translation update

------------------------------------------------------------------------
r1046745 | coles | 2009-11-09 15:51:32 +0000 (Mon, 09 Nov 2009) | 3 lines

Translated remaining untranslated message in stable en_GB.


------------------------------------------------------------------------
r1046801 | mrybczyn | 2009-11-09 18:53:38 +0000 (Mon, 09 Nov 2009) | 2 lines

Translation update (Dariusz Halka)

------------------------------------------------------------------------
r1046802 | mrybczyn | 2009-11-09 18:54:09 +0000 (Mon, 09 Nov 2009) | 2 lines

Proofreading

------------------------------------------------------------------------
r1046805 | huftis | 2009-11-09 18:55:28 +0000 (Mon, 09 Nov 2009) | 1 line

Updated Norwegian Nynorsk translations for kde4-stable.
------------------------------------------------------------------------
r1046809 | mrybczyn | 2009-11-09 19:00:26 +0000 (Mon, 09 Nov 2009) | 2 lines

Translation update (Krzysztof Wozniak)

------------------------------------------------------------------------
r1046810 | mrybczyn | 2009-11-09 19:01:47 +0000 (Mon, 09 Nov 2009) | 2 lines

Newly generated documentation

------------------------------------------------------------------------
r1046813 | huftis | 2009-11-09 19:04:09 +0000 (Mon, 09 Nov 2009) | 1 line

Updated Norwegian Bokmål translations for kde4-stable.
------------------------------------------------------------------------
r1046814 | mrybczyn | 2009-11-09 19:07:15 +0000 (Mon, 09 Nov 2009) | 2 lines

Translation update (Maciej Wiklo)

------------------------------------------------------------------------
r1046825 | ilic | 2009-11-09 19:53:35 +0000 (Mon, 09 Nov 2009) | 1 line

SVN_SILENT: Pmap updates.
------------------------------------------------------------------------
r1046849 | schwarzer | 2009-11-09 20:47:15 +0000 (Mon, 09 Nov 2009) | 1 line

translation update
------------------------------------------------------------------------
r1046909 | schwarzer | 2009-11-09 22:49:14 +0000 (Mon, 09 Nov 2009) | 5 lines

translation fix

Thanks Michael Loßin for the report.

BUG: 213902
------------------------------------------------------------------------
r1046922 | ecuadra | 2009-11-09 23:19:58 +0000 (Mon, 09 Nov 2009) | 2 lines

SVN_SILENT Translation update by Adrián Martínez
CC_MAIL: sfxgt3@gmail.com, jaime@robles.es
------------------------------------------------------------------------
r1046943 | scripty | 2009-11-10 00:31:04 +0000 (Tue, 10 Nov 2009) | 1 line

SVN_SILENT made messages (.pot file)
------------------------------------------------------------------------
r1046944 | scripty | 2009-11-10 00:32:21 +0000 (Tue, 10 Nov 2009) | 1 line

SVN_SILENT made messages (desktop*.pot file committed)
------------------------------------------------------------------------
r1046963 | zpintar | 2009-11-10 02:23:47 +0000 (Tue, 10 Nov 2009) | 1 line

Updated Croatian translations for kde4-stable.
------------------------------------------------------------------------
r1046969 | scripty | 2009-11-10 03:54:43 +0000 (Tue, 10 Nov 2009) | 1 line

SVN_SILENT made messages (.po file)
------------------------------------------------------------------------
r1046996 | pvidalis | 2009-11-10 08:41:10 +0000 (Tue, 10 Nov 2009) | 1 line


------------------------------------------------------------------------
r1047022 | laane | 2009-11-10 10:05:20 +0000 (Tue, 10 Nov 2009) | 4 lines


Uuendused ja mõned parandused, mille ettepanekud on pärit vastavalt Jaanus Ojangult (KOffice) ja Ülo Metsalt (KStars).


------------------------------------------------------------------------
r1047050 | laane | 2009-11-10 10:51:48 +0000 (Tue, 10 Nov 2009) | 4 lines


Veel paar parandust tänu Ain Vagulale.


------------------------------------------------------------------------
r1047059 | schwarzer | 2009-11-10 11:25:58 +0000 (Tue, 10 Nov 2009) | 1 line

translation update
------------------------------------------------------------------------
r1047098 | pano | 2009-11-10 13:40:57 +0000 (Tue, 10 Nov 2009) | 2 lines

Fix two typos

------------------------------------------------------------------------
r1047127 | fdekruijf | 2009-11-10 14:52:42 +0000 (Tue, 10 Nov 2009) | 1 line

update
------------------------------------------------------------------------
r1047134 | zepires | 2009-11-10 15:00:30 +0000 (Tue, 10 Nov 2009) | 1 line

Updates on BRANCH for now
------------------------------------------------------------------------
r1047141 | soytetir | 2009-11-10 15:10:47 +0000 (Tue, 10 Nov 2009) | 1 line

merge from trunk
------------------------------------------------------------------------
r1047143 | sveinki | 2009-11-10 15:15:03 +0000 (Tue, 10 Nov 2009) | 1 line

ýmsar lagfæringar
------------------------------------------------------------------------
r1047144 | sveinki | 2009-11-10 15:15:21 +0000 (Tue, 10 Nov 2009) | 1 line

Lokaútgáfa, yfirfarin og prófuð
------------------------------------------------------------------------
r1047163 | sveinki | 2009-11-10 16:17:03 +0000 (Tue, 10 Nov 2009) | 1 line

gróf yfirferð
------------------------------------------------------------------------
r1047169 | sveinki | 2009-11-10 16:26:59 +0000 (Tue, 10 Nov 2009) | 1 line

ýmsar lagfæringar og viðbætur
------------------------------------------------------------------------
r1047172 | sveinki | 2009-11-10 16:29:58 +0000 (Tue, 10 Nov 2009) | 1 line

ýmsar lagfæringar og viðbætur
------------------------------------------------------------------------
r1047173 | sveinki | 2009-11-10 16:32:47 +0000 (Tue, 10 Nov 2009) | 1 line

Lokaútgáfa, yfirfarin og prófuð
------------------------------------------------------------------------
r1047174 | sveinki | 2009-11-10 16:33:03 +0000 (Tue, 10 Nov 2009) | 1 line

gróf yfirferð
------------------------------------------------------------------------
r1047176 | sveinki | 2009-11-10 16:34:34 +0000 (Tue, 10 Nov 2009) | 1 line

gróf yfirferð
------------------------------------------------------------------------
r1047232 | yurchor | 2009-11-10 18:34:21 +0000 (Tue, 10 Nov 2009) | 1 line

Ukrainian translation update for stable
------------------------------------------------------------------------
r1047267 | huftis | 2009-11-10 21:16:48 +0000 (Tue, 10 Nov 2009) | 1 line

Updated Norwegian Nynorsk translations for kde4-stable.
------------------------------------------------------------------------
r1047272 | fdekruijf | 2009-11-10 21:24:11 +0000 (Tue, 10 Nov 2009) | 2 lines

update

------------------------------------------------------------------------
r1047282 | mrybczyn | 2009-11-10 21:53:29 +0000 (Tue, 10 Nov 2009) | 2 lines

Translation update (Krzysztof Wozniak)

------------------------------------------------------------------------
r1047283 | mrybczyn | 2009-11-10 21:54:44 +0000 (Tue, 10 Nov 2009) | 2 lines

Newly generated documentation

------------------------------------------------------------------------
r1047286 | mrybczyn | 2009-11-10 21:56:51 +0000 (Tue, 10 Nov 2009) | 2 lines

Translation update (Krzysztof Wozniak)

------------------------------------------------------------------------
r1047288 | mrybczyn | 2009-11-10 21:58:05 +0000 (Tue, 10 Nov 2009) | 2 lines

Newly generated documentation

------------------------------------------------------------------------
r1047289 | mrybczyn | 2009-11-10 22:00:32 +0000 (Tue, 10 Nov 2009) | 2 lines

Translation update (Krzysztof Wozniak)

------------------------------------------------------------------------
r1047291 | mrybczyn | 2009-11-10 22:01:15 +0000 (Tue, 10 Nov 2009) | 2 lines

Newly generated documentation

------------------------------------------------------------------------
r1047292 | mrybczyn | 2009-11-10 22:02:53 +0000 (Tue, 10 Nov 2009) | 2 lines

Translation update (Krzysztof Wozniak)

------------------------------------------------------------------------
r1047293 | mrybczyn | 2009-11-10 22:03:39 +0000 (Tue, 10 Nov 2009) | 2 lines

Newly generated documentation

------------------------------------------------------------------------
r1047323 | ltoscano | 2009-11-11 00:24:25 +0000 (Wed, 11 Nov 2009) | 2 lines

KOffice, new translation (unassigned)

------------------------------------------------------------------------
r1047349 | zpintar | 2009-11-11 02:28:18 +0000 (Wed, 11 Nov 2009) | 1 line

Updated Croatian translations for kde4-stable.
------------------------------------------------------------------------
r1047358 | scripty | 2009-11-11 03:53:04 +0000 (Wed, 11 Nov 2009) | 1 line

SVN_SILENT made messages (.po file)
------------------------------------------------------------------------
r1047366 | scripty | 2009-11-11 04:42:04 +0000 (Wed, 11 Nov 2009) | 1 line

check_po_files
------------------------------------------------------------------------
r1047376 | glodenis | 2009-11-11 06:14:17 +0000 (Wed, 11 Nov 2009) | 1 line

fixed regression with file; some translation updates
------------------------------------------------------------------------
r1047590 | yurchor | 2009-11-11 14:57:07 +0000 (Wed, 11 Nov 2009) | 1 line

Ukrainian translation update for stable
------------------------------------------------------------------------
r1047637 | jferrer | 2009-11-11 17:19:41 +0000 (Wed, 11 Nov 2009) | 2 lines

Updates by Josep Ma. Ferrer

------------------------------------------------------------------------
r1047746 | scripty | 2009-11-12 00:35:21 +0000 (Thu, 12 Nov 2009) | 1 line

SVN_SILENT made messages (.pot file)
------------------------------------------------------------------------
r1047747 | scripty | 2009-11-12 00:37:11 +0000 (Thu, 12 Nov 2009) | 1 line

SVN_SILENT made messages (desktop*.pot file committed)
------------------------------------------------------------------------
r1047760 | zpintar | 2009-11-12 02:24:46 +0000 (Thu, 12 Nov 2009) | 1 line

Updated Croatian translations for kde4-stable.
------------------------------------------------------------------------
r1047769 | scripty | 2009-11-12 04:06:19 +0000 (Thu, 12 Nov 2009) | 1 line

SVN_SILENT made messages (.po file)
------------------------------------------------------------------------
r1047781 | franklin | 2009-11-12 05:49:56 +0000 (Thu, 12 Nov 2009) | 1 line

20091112 committed by Franklin
------------------------------------------------------------------------
r1047786 | yurchor | 2009-11-12 08:00:06 +0000 (Thu, 12 Nov 2009) | 1 line

Ukrainian translation update for stable
------------------------------------------------------------------------
r1047915 | ilic | 2009-11-12 10:25:54 +0000 (Thu, 12 Nov 2009) | 1 line

Updates to localized resources tracking.
------------------------------------------------------------------------
r1047928 | ilic | 2009-11-12 10:48:11 +0000 (Thu, 12 Nov 2009) | 1 line

Updated tracking specifications.
------------------------------------------------------------------------
r1047951 | soytetir | 2009-11-12 12:13:07 +0000 (Thu, 12 Nov 2009) | 1 line

merge : some updates
------------------------------------------------------------------------
r1047989 | zepires | 2009-11-12 14:47:59 +0000 (Thu, 12 Nov 2009) | 1 line

Updates on BRANCH for now
------------------------------------------------------------------------
r1048028 | sharuzzaman | 2009-11-12 16:23:36 +0000 (Thu, 12 Nov 2009) | 1 line

Updated Malay translation
------------------------------------------------------------------------
r1048148 | lueck | 2009-11-12 20:21:31 +0000 (Thu, 12 Nov 2009) | 1 line

translation update
------------------------------------------------------------------------
r1048169 | arpadbiro | 2009-11-12 20:49:23 +0000 (Thu, 12 Nov 2009) | 1 line

SVN_SILENT typo fix
------------------------------------------------------------------------
r1048183 | jferrer | 2009-11-12 21:21:30 +0000 (Thu, 12 Nov 2009) | 2 lines

Update by Josep Ma. Ferrer

------------------------------------------------------------------------
r1048258 | scripty | 2009-11-13 00:34:19 +0000 (Fri, 13 Nov 2009) | 1 line

SVN_SILENT made messages (.pot file)
------------------------------------------------------------------------
r1048260 | scripty | 2009-11-13 00:35:54 +0000 (Fri, 13 Nov 2009) | 1 line

SVN_SILENT made messages (desktop*.pot file committed)
------------------------------------------------------------------------
r1048292 | zpintar | 2009-11-13 02:26:32 +0000 (Fri, 13 Nov 2009) | 1 line

Updated Croatian translations for kde4-stable.
------------------------------------------------------------------------
r1048298 | scripty | 2009-11-13 03:56:10 +0000 (Fri, 13 Nov 2009) | 1 line

SVN_SILENT made messages (.po file)
------------------------------------------------------------------------
r1048434 | shaforo | 2009-11-13 10:23:20 +0000 (Fri, 13 Nov 2009) | 1 line

SVN_SILENT update
------------------------------------------------------------------------
r1048492 | yurchor | 2009-11-13 12:50:53 +0000 (Fri, 13 Nov 2009) | 1 line

Ukrainian translation update for stable
------------------------------------------------------------------------
r1048530 | lueck | 2009-11-13 13:49:17 +0000 (Fri, 13 Nov 2009) | 1 line

translation update
------------------------------------------------------------------------
r1048577 | soytetir | 2009-11-13 15:16:48 +0000 (Fri, 13 Nov 2009) | 1 line

merge : some updates
------------------------------------------------------------------------
r1048613 | jferrer | 2009-11-13 15:54:54 +0000 (Fri, 13 Nov 2009) | 2 lines

Updates by Josep Ma. Ferrer

------------------------------------------------------------------------
r1048680 | shaforo | 2009-11-13 18:23:33 +0000 (Fri, 13 Nov 2009) | 1 line

SVN_SILENT update
------------------------------------------------------------------------
r1048713 | asserhal | 2009-11-13 20:23:24 +0000 (Fri, 13 Nov 2009) | 1 line

SVN_SILENT updated translations
------------------------------------------------------------------------
r1048727 | ltoscano | 2009-11-13 21:20:04 +0000 (Fri, 13 Nov 2009) | 2 lines

Complete unassigned files.

------------------------------------------------------------------------
r1048728 | soytetir | 2009-11-13 21:20:05 +0000 (Fri, 13 Nov 2009) | 1 line

merge : some minor updates
------------------------------------------------------------------------
r1048750 | mrybczyn | 2009-11-13 22:06:53 +0000 (Fri, 13 Nov 2009) | 2 lines

Translation update (Krzysztof Wozniak)

------------------------------------------------------------------------
r1048751 | mrybczyn | 2009-11-13 22:08:12 +0000 (Fri, 13 Nov 2009) | 2 lines

Newly generated documentation

------------------------------------------------------------------------
r1048843 | scripty | 2009-11-14 00:32:29 +0000 (Sat, 14 Nov 2009) | 1 line

SVN_SILENT made messages (.pot file)
------------------------------------------------------------------------
r1048844 | scripty | 2009-11-14 00:33:57 +0000 (Sat, 14 Nov 2009) | 1 line

SVN_SILENT made messages (desktop*.pot file committed)
------------------------------------------------------------------------
r1048865 | zpintar | 2009-11-14 02:25:22 +0000 (Sat, 14 Nov 2009) | 1 line

Updated Croatian translations for kde4-stable.
------------------------------------------------------------------------
r1048879 | scripty | 2009-11-14 03:55:01 +0000 (Sat, 14 Nov 2009) | 1 line

SVN_SILENT made messages (.po file)
------------------------------------------------------------------------
r1048897 | scripty | 2009-11-14 04:44:05 +0000 (Sat, 14 Nov 2009) | 1 line

check_po_files
------------------------------------------------------------------------
r1049078 | ecuadra | 2009-11-14 12:40:28 +0000 (Sat, 14 Nov 2009) | 2 lines

SVN_SILENT Translation update by Leticia Martin
CC_MAIL: leticia.martin@gmail.com, jaime@robles.es
------------------------------------------------------------------------
r1049187 | ltoscano | 2009-11-14 16:59:04 +0000 (Sat, 14 Nov 2009) | 4 lines

Translation updates by Antonino Arcudi (with few fixes).

CCMAIL: antonino.arcudi@gmail.com

------------------------------------------------------------------------
r1049220 | yurchor | 2009-11-14 20:43:54 +0000 (Sat, 14 Nov 2009) | 1 line

Ukrainian translation update for stable
------------------------------------------------------------------------
r1049261 | mgama | 2009-11-14 22:42:27 +0000 (Sat, 14 Nov 2009) | 1 line

Updating pt_BR translations
------------------------------------------------------------------------
r1049268 | quique | 2009-11-14 22:56:58 +0000 (Sat, 14 Nov 2009) | 1 line

SVN_SILENT Update Spanish translation
------------------------------------------------------------------------
r1049282 | fzenith | 2009-11-14 23:31:49 +0000 (Sat, 14 Nov 2009) | 3 lines

Commit by Andrea Celli
CCMAIL: a.celli.casa@gmail.com

------------------------------------------------------------------------
r1049297 | scripty | 2009-11-15 00:30:04 +0000 (Sun, 15 Nov 2009) | 1 line

SVN_SILENT made messages (.pot file)
------------------------------------------------------------------------
r1049325 | zpintar | 2009-11-15 02:24:18 +0000 (Sun, 15 Nov 2009) | 1 line

Updated Croatian translations for kde4-stable.
------------------------------------------------------------------------
r1049338 | scripty | 2009-11-15 03:46:20 +0000 (Sun, 15 Nov 2009) | 1 line

SVN_SILENT made messages (.po file)
------------------------------------------------------------------------
r1049349 | scripty | 2009-11-15 04:28:55 +0000 (Sun, 15 Nov 2009) | 1 line

check_po_files
------------------------------------------------------------------------
r1049540 | coles | 2009-11-15 12:09:00 +0000 (Sun, 15 Nov 2009) | 3 lines

Updated stable en_GB translations.


------------------------------------------------------------------------
r1049577 | yurchor | 2009-11-15 13:48:02 +0000 (Sun, 15 Nov 2009) | 1 line

Ukrainian translation update for stable
------------------------------------------------------------------------
r1049585 | aacid | 2009-11-15 14:15:16 +0000 (Sun, 15 Nov 2009) | 3 lines

nuve -> nube
BUGS: 213657

------------------------------------------------------------------------
r1049597 | shaforo | 2009-11-15 14:30:06 +0000 (Sun, 15 Nov 2009) | 1 line

SVN_SILENT update
------------------------------------------------------------------------
r1049614 | shaforo | 2009-11-15 15:04:19 +0000 (Sun, 15 Nov 2009) | 1 line

SVN_SILENT update
------------------------------------------------------------------------
r1049670 | quique | 2009-11-15 17:07:30 +0000 (Sun, 15 Nov 2009) | 1 line

SVN_SILENT Update Spanish translation
------------------------------------------------------------------------
r1049700 | huftis | 2009-11-15 17:35:51 +0000 (Sun, 15 Nov 2009) | 1 line

Updated Norwegian Nynorsk translations for kde4-stable.
------------------------------------------------------------------------
r1049755 | shaforo | 2009-11-15 19:08:09 +0000 (Sun, 15 Nov 2009) | 1 line

SVN_SILENT update
------------------------------------------------------------------------
r1049764 | shaforo | 2009-11-15 19:27:19 +0000 (Sun, 15 Nov 2009) | 1 line

SVN_SILENT update
------------------------------------------------------------------------
r1049774 | ecuadra | 2009-11-15 20:22:07 +0000 (Sun, 15 Nov 2009) | 2 lines

SVN_SILENT Translation update by Leticia Martin
CC_MAIL: leticia.martin@gmail.com, jaime@robles.es
------------------------------------------------------------------------
r1049779 | lueck | 2009-11-15 20:40:15 +0000 (Sun, 15 Nov 2009) | 1 line

translation update
------------------------------------------------------------------------
r1049804 | mrybczyn | 2009-11-15 21:37:00 +0000 (Sun, 15 Nov 2009) | 2 lines

Translation update (Maciej Wiklo)

------------------------------------------------------------------------
r1049833 | jferrer | 2009-11-15 23:36:23 +0000 (Sun, 15 Nov 2009) | 2 lines

Updates by Josep Ma. Ferrer

------------------------------------------------------------------------
r1049844 | soytetir | 2009-11-15 23:52:11 +0000 (Sun, 15 Nov 2009) | 1 line

merge : some updates
------------------------------------------------------------------------
r1049866 | scripty | 2009-11-16 00:31:34 +0000 (Mon, 16 Nov 2009) | 1 line

SVN_SILENT made messages (.pot file)
------------------------------------------------------------------------
r1049873 | ilic | 2009-11-16 00:53:32 +0000 (Mon, 16 Nov 2009) | 1 line

SVN_SILENT: Merge.
------------------------------------------------------------------------
r1049886 | zpintar | 2009-11-16 02:26:00 +0000 (Mon, 16 Nov 2009) | 1 line

Updated Croatian translations for kde4-stable.
------------------------------------------------------------------------
r1049897 | scripty | 2009-11-16 04:04:29 +0000 (Mon, 16 Nov 2009) | 1 line

SVN_SILENT made messages (.po file)
------------------------------------------------------------------------
r1050008 | ilic | 2009-11-16 11:34:59 +0000 (Mon, 16 Nov 2009) | 1 line

SVN_SILENT: Summit scatter.
------------------------------------------------------------------------
r1050033 | ilic | 2009-11-16 13:18:53 +0000 (Mon, 16 Nov 2009) | 1 line

Updates to localized resources tracking.
------------------------------------------------------------------------
r1050053 | huftis | 2009-11-16 14:18:17 +0000 (Mon, 16 Nov 2009) | 1 line

Updated Norwegian Nynorsk translations for kde4-stable.
------------------------------------------------------------------------
r1050097 | yurchor | 2009-11-16 16:19:12 +0000 (Mon, 16 Nov 2009) | 1 line

Add screenshots to Ukrainian docs
------------------------------------------------------------------------
r1050117 | shaforo | 2009-11-16 17:10:34 +0000 (Mon, 16 Nov 2009) | 1 line

SVN_SILENT update
------------------------------------------------------------------------
r1050121 | laane | 2009-11-16 17:25:54 +0000 (Mon, 16 Nov 2009) | 4 lines


Uuendus + Ainil on tegelikult õigus: rööpjoondus on juurdunud mõiste ja plokkjoondus asjatu muudatus.


------------------------------------------------------------------------
r1050208 | fzenith | 2009-11-16 21:23:07 +0000 (Mon, 16 Nov 2009) | 3 lines

Commit by Simone
CCMAIL: ksolsim@gmail.com

------------------------------------------------------------------------
r1050217 | jferrer | 2009-11-16 21:52:38 +0000 (Mon, 16 Nov 2009) | 2 lines

Updates by Josep Ma. Ferrer (fix catalan country names)

------------------------------------------------------------------------
r1050232 | mrybczyn | 2009-11-16 22:25:30 +0000 (Mon, 16 Nov 2009) | 2 lines

Translation update (Krzysztof Wozniak)

------------------------------------------------------------------------
r1050238 | mrybczyn | 2009-11-16 22:29:01 +0000 (Mon, 16 Nov 2009) | 2 lines

Newly generated documentation

------------------------------------------------------------------------
r1050254 | fzenith | 2009-11-16 22:54:50 +0000 (Mon, 16 Nov 2009) | 3 lines

Commit by Andrea Celli
CCMAIL: a.celli.casa@gmail.com

------------------------------------------------------------------------
r1050258 | fzenith | 2009-11-16 23:10:31 +0000 (Mon, 16 Nov 2009) | 2 lines

New file

------------------------------------------------------------------------
r1050267 | fzenith | 2009-11-16 23:50:34 +0000 (Mon, 16 Nov 2009) | 2 lines

Doc regeneration

------------------------------------------------------------------------
r1050269 | scripty | 2009-11-17 00:30:30 +0000 (Tue, 17 Nov 2009) | 1 line

SVN_SILENT made messages (.pot file)
------------------------------------------------------------------------
r1050282 | zpintar | 2009-11-17 02:25:20 +0000 (Tue, 17 Nov 2009) | 1 line

Updated Croatian translations for kde4-stable.
------------------------------------------------------------------------
r1050285 | scripty | 2009-11-17 03:48:35 +0000 (Tue, 17 Nov 2009) | 1 line

SVN_SILENT made messages (.po file)
------------------------------------------------------------------------
r1050294 | scripty | 2009-11-17 04:26:22 +0000 (Tue, 17 Nov 2009) | 1 line

check_po_files
------------------------------------------------------------------------
r1050541 | tszanto | 2009-11-17 15:38:05 +0000 (Tue, 17 Nov 2009) | 1 line

Tamas Szanto
------------------------------------------------------------------------
r1050542 | tszanto | 2009-11-17 15:39:45 +0000 (Tue, 17 Nov 2009) | 1 line

Tamas Szanto
------------------------------------------------------------------------
r1050545 | tszanto | 2009-11-17 15:44:18 +0000 (Tue, 17 Nov 2009) | 1 line

Tamas Szanto
------------------------------------------------------------------------
r1050565 | fzenith | 2009-11-17 16:56:34 +0000 (Tue, 17 Nov 2009) | 3 lines

Commit by Andrea Celli
CCMAIL: a.celli@infinito.it

------------------------------------------------------------------------
r1050575 | sveinki | 2009-11-17 17:19:54 +0000 (Tue, 17 Nov 2009) | 1 line

gróf yfirferð
------------------------------------------------------------------------
r1050582 | huftis | 2009-11-17 17:36:24 +0000 (Tue, 17 Nov 2009) | 1 line

Updated Norwegian Nynorsk translations for kde4-stable.
------------------------------------------------------------------------
r1050585 | sveinki | 2009-11-17 17:41:24 +0000 (Tue, 17 Nov 2009) | 1 line

ýmsar lagfæringar og viðbætur
------------------------------------------------------------------------
r1050588 | jferrer | 2009-11-17 17:45:10 +0000 (Tue, 17 Nov 2009) | 2 lines

Updates by Josep Ma. Ferrer

------------------------------------------------------------------------
r1050589 | yurchor | 2009-11-17 17:45:11 +0000 (Tue, 17 Nov 2009) | 1 line

Ukrainian translation update for stable
------------------------------------------------------------------------
r1050591 | sveinki | 2009-11-17 17:46:38 +0000 (Tue, 17 Nov 2009) | 1 line

smáviðgerð
------------------------------------------------------------------------
r1050595 | sveinki | 2009-11-17 17:54:42 +0000 (Tue, 17 Nov 2009) | 1 line

gróf yfirferð
------------------------------------------------------------------------
r1050598 | kenkovaa | 2009-11-17 18:03:03 +0000 (Tue, 17 Nov 2009) | 2 lines

Updates from Tommi

------------------------------------------------------------------------
r1050688 | fzenith | 2009-11-17 21:53:49 +0000 (Tue, 17 Nov 2009) | 2 lines

Sposta/Copia a -> in

------------------------------------------------------------------------
r1050691 | fzenith | 2009-11-17 22:01:49 +0000 (Tue, 17 Nov 2009) | 4 lines

Correcting errors listed in http://www.kde.cat/aacid/xml_errors/stable/it/messages.html:
Inconsistent number of commas for email addresses,
one error in tags

------------------------------------------------------------------------
r1050692 | ltoscano | 2009-11-17 22:07:21 +0000 (Tue, 17 Nov 2009) | 3 lines

Fix errors (http://www.kde.cat/aacid/xml_errors/stable/);
consistent order for email addressed.

------------------------------------------------------------------------
r1050710 | coles | 2009-11-17 22:52:51 +0000 (Tue, 17 Nov 2009) | 3 lines

Fixed XML errors in en_GB stable.


------------------------------------------------------------------------
r1050733 | scripty | 2009-11-18 00:30:29 +0000 (Wed, 18 Nov 2009) | 1 line

SVN_SILENT made messages (.pot file)
------------------------------------------------------------------------
r1050734 | scripty | 2009-11-18 00:32:00 +0000 (Wed, 18 Nov 2009) | 1 line

SVN_SILENT made messages (desktop*.pot file committed)
------------------------------------------------------------------------
r1050751 | zpintar | 2009-11-18 02:26:34 +0000 (Wed, 18 Nov 2009) | 1 line

Updated Croatian translations for kde4-stable.
------------------------------------------------------------------------
r1050759 | scripty | 2009-11-18 03:59:36 +0000 (Wed, 18 Nov 2009) | 1 line

SVN_SILENT made messages (.po file)
------------------------------------------------------------------------
r1050764 | scripty | 2009-11-18 04:50:59 +0000 (Wed, 18 Nov 2009) | 1 line

check_po_files
------------------------------------------------------------------------
r1050777 | yurchor | 2009-11-18 07:55:23 +0000 (Wed, 18 Nov 2009) | 1 line

Ukrainian translation update for stable
------------------------------------------------------------------------
r1050787 | fwang | 2009-11-18 08:45:44 +0000 (Wed, 18 Nov 2009) | 2 lines

koffice 2.1 translations

------------------------------------------------------------------------
r1050803 | tszanto | 2009-11-18 09:58:43 +0000 (Wed, 18 Nov 2009) | 1 line

Tamas Szanto
------------------------------------------------------------------------
r1050920 | sveinki | 2009-11-18 11:33:21 +0000 (Wed, 18 Nov 2009) | 1 line

smáviðgerð á XML
------------------------------------------------------------------------
r1050940 | tszanto | 2009-11-18 11:42:06 +0000 (Wed, 18 Nov 2009) | 1 line

Tamas Szanto
------------------------------------------------------------------------
r1050949 | pvidalis | 2009-11-18 12:45:32 +0000 (Wed, 18 Nov 2009) | 1 line


------------------------------------------------------------------------
r1050950 | schlander | 2009-11-18 12:48:28 +0000 (Wed, 18 Nov 2009) | 2 lines

translation update

------------------------------------------------------------------------
r1051013 | tszanto | 2009-11-18 15:44:37 +0000 (Wed, 18 Nov 2009) | 1 line

Tamas Szanto
------------------------------------------------------------------------
r1051072 | jferrer | 2009-11-18 19:57:36 +0000 (Wed, 18 Nov 2009) | 2 lines

Updates after running "posieve normalize-header"

------------------------------------------------------------------------
r1051119 | repinc | 2009-11-18 22:11:19 +0000 (Wed, 18 Nov 2009) | 2 lines

Updated Slovenian translations

------------------------------------------------------------------------
r1051167 | jferrer | 2009-11-18 23:01:34 +0000 (Wed, 18 Nov 2009) | 2 lines

Updates by Josep Ma. Ferrer (fix catalan country names)

------------------------------------------------------------------------
r1051199 | ilic | 2009-11-18 23:57:01 +0000 (Wed, 18 Nov 2009) | 1 line

SVN_SILENT: Summit scatter.
------------------------------------------------------------------------
r1051216 | scripty | 2009-11-19 00:34:48 +0000 (Thu, 19 Nov 2009) | 1 line

SVN_SILENT made messages (.pot file)
------------------------------------------------------------------------
r1051217 | scripty | 2009-11-19 00:36:10 +0000 (Thu, 19 Nov 2009) | 1 line

SVN_SILENT made messages (desktop*.pot file committed)
------------------------------------------------------------------------
r1051220 | ilic | 2009-11-19 00:39:34 +0000 (Thu, 19 Nov 2009) | 1 line

SVN_SILENT: Summit scatter.
------------------------------------------------------------------------
r1051230 | zpintar | 2009-11-19 02:26:01 +0000 (Thu, 19 Nov 2009) | 1 line

Updated Croatian translations for kde4-stable.
------------------------------------------------------------------------
r1051236 | scripty | 2009-11-19 04:07:06 +0000 (Thu, 19 Nov 2009) | 1 line

SVN_SILENT made messages (.po file)
------------------------------------------------------------------------
r1051253 | scripty | 2009-11-19 04:51:06 +0000 (Thu, 19 Nov 2009) | 1 line

check_po_files
------------------------------------------------------------------------
r1051261 | fzenith | 2009-11-19 07:43:50 +0000 (Thu, 19 Nov 2009) | 3 lines

Commit by Simone
CCMAIL: ksolsim@gmail.com

------------------------------------------------------------------------
r1051456 | schlander | 2009-11-19 12:09:26 +0000 (Thu, 19 Nov 2009) | 2 lines

translation update

------------------------------------------------------------------------
r1051471 | quique | 2009-11-19 13:52:54 +0000 (Thu, 19 Nov 2009) | 1 line

SVN_SILENT Update Spanish translation
------------------------------------------------------------------------
r1051478 | soytetir | 2009-11-19 14:42:32 +0000 (Thu, 19 Nov 2009) | 1 line

MERGE : add some missing files, updates
------------------------------------------------------------------------
r1051529 | mrybczyn | 2009-11-19 18:19:46 +0000 (Thu, 19 Nov 2009) | 2 lines

Translation update (Krzysztof Wozniak)

------------------------------------------------------------------------
r1051534 | mrybczyn | 2009-11-19 18:27:11 +0000 (Thu, 19 Nov 2009) | 2 lines

Translation update (Maciej Wiklo)

------------------------------------------------------------------------
r1051538 | arpadbiro | 2009-11-19 18:51:48 +0000 (Thu, 19 Nov 2009) | 1 line

SVN_SILENT typo fix
------------------------------------------------------------------------
r1051539 | arpadbiro | 2009-11-19 18:53:44 +0000 (Thu, 19 Nov 2009) | 1 line

SVN_SILENT typo fix
------------------------------------------------------------------------
r1051555 | montanaro | 2009-11-19 19:39:07 +0000 (Thu, 19 Nov 2009) | 2 lines

Ported translations from trunk

------------------------------------------------------------------------
r1051568 | montanaro | 2009-11-19 20:07:11 +0000 (Thu, 19 Nov 2009) | 3 lines

Typos and conventions
CCMAIL: kde-i18n-it@kde.org

------------------------------------------------------------------------
r1051575 | ecuadra | 2009-11-19 20:18:27 +0000 (Thu, 19 Nov 2009) | 2 lines

SVN_SILENT Translation update by Cristina Yenyxe González García
CC_MAIL: the.blue.valkyrie@gmail.com, jaime@robles.es
------------------------------------------------------------------------
r1051582 | ecuadra | 2009-11-19 20:27:51 +0000 (Thu, 19 Nov 2009) | 1 line

SVN_SILENT Translation update
------------------------------------------------------------------------
r1051601 | s_dibbern | 2009-11-19 21:15:08 +0000 (Thu, 19 Nov 2009) | 1 line

Scattered changes from stable revision 1051598.
------------------------------------------------------------------------
r1051605 | huftis | 2009-11-19 21:23:18 +0000 (Thu, 19 Nov 2009) | 1 line

Updated Norwegian Nynorsk translations for kde4-stable.
------------------------------------------------------------------------
r1051654 | jferrer | 2009-11-19 23:11:52 +0000 (Thu, 19 Nov 2009) | 2 lines

More work with translations for country's names

------------------------------------------------------------------------
r1051742 | scripty | 2009-11-20 00:30:33 +0000 (Fri, 20 Nov 2009) | 1 line

SVN_SILENT made messages (.pot file)
------------------------------------------------------------------------
r1051744 | scripty | 2009-11-20 00:31:59 +0000 (Fri, 20 Nov 2009) | 1 line

SVN_SILENT made messages (desktop*.pot file committed)
------------------------------------------------------------------------
r1051760 | zpintar | 2009-11-20 02:24:11 +0000 (Fri, 20 Nov 2009) | 1 line

Updated Croatian translations for kde4-stable.
------------------------------------------------------------------------
r1051767 | scripty | 2009-11-20 04:01:04 +0000 (Fri, 20 Nov 2009) | 1 line

SVN_SILENT made messages (.po file)
------------------------------------------------------------------------
r1051770 | scripty | 2009-11-20 04:39:25 +0000 (Fri, 20 Nov 2009) | 1 line

check_po_files
------------------------------------------------------------------------
r1051982 | quique | 2009-11-20 13:10:10 +0000 (Fri, 20 Nov 2009) | 1 line

SVN_SILENT Update Spanish translation
------------------------------------------------------------------------
r1052052 | asserhal | 2009-11-20 16:29:31 +0000 (Fri, 20 Nov 2009) | 1 line

SVN_SILENT updated translations
------------------------------------------------------------------------
r1052106 | jferrer | 2009-11-20 19:45:28 +0000 (Fri, 20 Nov 2009) | 2 lines

Updates by Josep Ma. Ferrer (country's names)

------------------------------------------------------------------------
r1052120 | yurchor | 2009-11-20 20:24:42 +0000 (Fri, 20 Nov 2009) | 1 line

Ukrainian translation update for stable
------------------------------------------------------------------------
r1052188 | scripty | 2009-11-21 00:32:34 +0000 (Sat, 21 Nov 2009) | 1 line

SVN_SILENT made messages (.pot file)
------------------------------------------------------------------------
r1052208 | zpintar | 2009-11-21 02:28:30 +0000 (Sat, 21 Nov 2009) | 1 line

Updated Croatian translations for kde4-stable.
------------------------------------------------------------------------
r1052213 | scripty | 2009-11-21 04:11:57 +0000 (Sat, 21 Nov 2009) | 1 line

SVN_SILENT made messages (.po file)
------------------------------------------------------------------------
r1052234 | jcayron | 2009-11-21 09:16:51 +0000 (Sat, 21 Nov 2009) | 1 line

Translations for 2.1 release
------------------------------------------------------------------------
r1052261 | jferrer | 2009-11-21 09:54:36 +0000 (Sat, 21 Nov 2009) | 2 lines

Updates by Josep Ma. Ferrer

------------------------------------------------------------------------
r1052358 | mgama | 2009-11-21 11:15:42 +0000 (Sat, 21 Nov 2009) | 1 line

Updating pt_BR translations
------------------------------------------------------------------------
r1052380 | fric | 2009-11-21 12:37:05 +0000 (Sat, 21 Nov 2009) | 1 line

Updated Slovak translation
------------------------------------------------------------------------
r1052420 | yurchor | 2009-11-21 16:42:45 +0000 (Sat, 21 Nov 2009) | 1 line

Ukrainian translation update for stable
------------------------------------------------------------------------
r1052472 | mrybczyn | 2009-11-21 20:30:17 +0000 (Sat, 21 Nov 2009) | 2 lines

Translation update (Krzysztof Wozniak)

------------------------------------------------------------------------
r1052493 | mrybczyn | 2009-11-21 21:42:54 +0000 (Sat, 21 Nov 2009) | 2 lines

Translation update (Michal Konieczny)

------------------------------------------------------------------------
r1052494 | mrybczyn | 2009-11-21 21:43:41 +0000 (Sat, 21 Nov 2009) | 2 lines

Proofreading

------------------------------------------------------------------------
r1052524 | jferrer | 2009-11-21 23:39:31 +0000 (Sat, 21 Nov 2009) | 2 lines

Updates by Josep Ma. Ferrer

------------------------------------------------------------------------
r1052531 | scripty | 2009-11-22 00:33:14 +0000 (Sun, 22 Nov 2009) | 1 line

SVN_SILENT made messages (.pot file)
------------------------------------------------------------------------
r1052549 | zpintar | 2009-11-22 02:26:17 +0000 (Sun, 22 Nov 2009) | 1 line

Updated Croatian translations for kde4-stable.
------------------------------------------------------------------------
r1052552 | scripty | 2009-11-22 03:57:57 +0000 (Sun, 22 Nov 2009) | 1 line

SVN_SILENT made messages (.po file)
------------------------------------------------------------------------
r1052572 | scripty | 2009-11-22 04:40:16 +0000 (Sun, 22 Nov 2009) | 1 line

check_po_files
------------------------------------------------------------------------
r1052585 | franklin | 2009-11-22 07:56:05 +0000 (Sun, 22 Nov 2009) | 1 line

20091121 committed by Franklin
------------------------------------------------------------------------
r1052591 | fric | 2009-11-22 09:21:01 +0000 (Sun, 22 Nov 2009) | 1 line

Updated Slovak translation
------------------------------------------------------------------------
r1052744 | mrybczyn | 2009-11-22 12:40:33 +0000 (Sun, 22 Nov 2009) | 2 lines

Translation update (Krzysztof Wozniak)

------------------------------------------------------------------------
r1052745 | mrybczyn | 2009-11-22 12:42:35 +0000 (Sun, 22 Nov 2009) | 2 lines

Newly generated documentation

------------------------------------------------------------------------
r1052746 | mrybczyn | 2009-11-22 12:45:07 +0000 (Sun, 22 Nov 2009) | 2 lines

Screenshots for kapman

------------------------------------------------------------------------
r1052792 | soytetir | 2009-11-22 14:00:07 +0000 (Sun, 22 Nov 2009) | 1 line

MERGE : add ksirkskineditor.po translated by Kemal Kefeli
------------------------------------------------------------------------
r1052826 | schlander | 2009-11-22 15:34:40 +0000 (Sun, 22 Nov 2009) | 2 lines

translation update

------------------------------------------------------------------------
r1052831 | yurchor | 2009-11-22 15:50:37 +0000 (Sun, 22 Nov 2009) | 1 line

Ukrainian translation update for stable
------------------------------------------------------------------------
r1052842 | mrybczyn | 2009-11-22 16:30:49 +0000 (Sun, 22 Nov 2009) | 2 lines

Translation update (Marta Rybczynska)

------------------------------------------------------------------------
r1052894 | ecuadra | 2009-11-22 18:39:10 +0000 (Sun, 22 Nov 2009) | 2 lines

SVN_SILENT Translation update by Cristina Yenyxe González García
CC_MAIL: the.blue.valkyrie@gmail.com, jaime@robles.es
------------------------------------------------------------------------
r1052899 | sveinki | 2009-11-22 18:50:09 +0000 (Sun, 22 Nov 2009) | 1 line

gróf yfirferð
------------------------------------------------------------------------
r1052900 | asserhal | 2009-11-22 18:52:59 +0000 (Sun, 22 Nov 2009) | 1 line

SVN_SILENT updated translations
------------------------------------------------------------------------
r1052904 | sveinki | 2009-11-22 19:06:42 +0000 (Sun, 22 Nov 2009) | 1 line

gróf yfirferð
------------------------------------------------------------------------
r1052959 | asereda | 2009-11-22 21:41:30 +0000 (Sun, 22 Nov 2009) | 2 lines

SVN_SILENT Koffice transalations update

------------------------------------------------------------------------
r1053031 | scripty | 2009-11-23 00:34:26 +0000 (Mon, 23 Nov 2009) | 1 line

SVN_SILENT made messages (.pot file)
------------------------------------------------------------------------
r1053033 | scripty | 2009-11-23 00:35:51 +0000 (Mon, 23 Nov 2009) | 1 line

SVN_SILENT made messages (desktop*.pot file committed)
------------------------------------------------------------------------
r1053061 | zpintar | 2009-11-23 02:25:56 +0000 (Mon, 23 Nov 2009) | 1 line

Updated Croatian translations for kde4-stable.
------------------------------------------------------------------------
r1053067 | scripty | 2009-11-23 04:07:54 +0000 (Mon, 23 Nov 2009) | 1 line

SVN_SILENT made messages (.po file)
------------------------------------------------------------------------
r1053071 | scripty | 2009-11-23 04:46:08 +0000 (Mon, 23 Nov 2009) | 1 line

check_po_files
------------------------------------------------------------------------
r1053163 | laane | 2009-11-23 13:32:26 +0000 (Mon, 23 Nov 2009) | 4 lines


Uuendused.


------------------------------------------------------------------------
r1053254 | jferrer | 2009-11-23 17:47:03 +0000 (Mon, 23 Nov 2009) | 2 lines

Updates by Josep Ma. Ferrer

------------------------------------------------------------------------
r1053316 | asserhal | 2009-11-23 20:41:59 +0000 (Mon, 23 Nov 2009) | 1 line

SVN_SILENT updated translations
------------------------------------------------------------------------
r1053321 | mrybczyn | 2009-11-23 20:49:59 +0000 (Mon, 23 Nov 2009) | 2 lines

Translation update (Marcin Kocur)

------------------------------------------------------------------------
r1053332 | yurchor | 2009-11-23 21:11:24 +0000 (Mon, 23 Nov 2009) | 1 line

Ukrainian translation update for stable
------------------------------------------------------------------------
r1053347 | jferrer | 2009-11-23 21:51:23 +0000 (Mon, 23 Nov 2009) | 2 lines

Update by Josep Ma. Ferrer

------------------------------------------------------------------------
r1053405 | scripty | 2009-11-24 00:34:18 +0000 (Tue, 24 Nov 2009) | 1 line

SVN_SILENT made messages (.pot file)
------------------------------------------------------------------------
r1053407 | scripty | 2009-11-24 00:36:20 +0000 (Tue, 24 Nov 2009) | 1 line

SVN_SILENT made messages (desktop*.pot file committed)
------------------------------------------------------------------------
r1053417 | zpintar | 2009-11-24 02:26:15 +0000 (Tue, 24 Nov 2009) | 1 line

Updated Croatian translations for kde4-stable.
------------------------------------------------------------------------
r1053418 | franklin | 2009-11-24 02:31:13 +0000 (Tue, 24 Nov 2009) | 1 line

20091124 committed by Franklin
------------------------------------------------------------------------
r1053429 | scripty | 2009-11-24 03:58:02 +0000 (Tue, 24 Nov 2009) | 1 line

SVN_SILENT made messages (.po file)
------------------------------------------------------------------------
r1053468 | pvidalis | 2009-11-24 09:25:18 +0000 (Tue, 24 Nov 2009) | 1 line


------------------------------------------------------------------------
r1053597 | schwarzer | 2009-11-24 10:57:56 +0000 (Tue, 24 Nov 2009) | 1 line

translation update
------------------------------------------------------------------------
r1053623 | ilic | 2009-11-24 12:25:10 +0000 (Tue, 24 Nov 2009) | 1 line

SVN_SILENT: Merge.
------------------------------------------------------------------------
r1053666 | zepires | 2009-11-24 14:34:02 +0000 (Tue, 24 Nov 2009) | 1 line

Updates on BRANCH for now
------------------------------------------------------------------------
r1053668 | sveinki | 2009-11-24 14:40:50 +0000 (Tue, 24 Nov 2009) | 1 line

gróf yfirferð
------------------------------------------------------------------------
r1053670 | sveinki | 2009-11-24 14:41:05 +0000 (Tue, 24 Nov 2009) | 1 line

Lokaútgáfa, yfirfarin og prófuð
------------------------------------------------------------------------
r1053671 | sveinki | 2009-11-24 14:42:55 +0000 (Tue, 24 Nov 2009) | 1 line

Lokaútgáfa, yfirfarin og prófuð
------------------------------------------------------------------------
r1053678 | soytetir | 2009-11-24 14:53:44 +0000 (Tue, 24 Nov 2009) | 1 line

add missing files
------------------------------------------------------------------------
r1053723 | schlander | 2009-11-24 17:41:01 +0000 (Tue, 24 Nov 2009) | 2 lines

translation update

------------------------------------------------------------------------
r1053741 | yurchor | 2009-11-24 18:40:14 +0000 (Tue, 24 Nov 2009) | 1 line


------------------------------------------------------------------------
r1053928 | ilic | 2009-11-25 01:32:16 +0000 (Wed, 25 Nov 2009) | 1 line

SVN_SILENT: Summit scatter.
------------------------------------------------------------------------
r1053950 | scripty | 2009-11-25 03:55:07 +0000 (Wed, 25 Nov 2009) | 1 line

SVN_SILENT made messages (.po file)
------------------------------------------------------------------------
r1053968 | sveinki | 2009-11-25 08:08:35 +0000 (Wed, 25 Nov 2009) | 1 line

tiltekt í svn
------------------------------------------------------------------------
r1054002 | pelcak | 2009-11-25 10:08:58 +0000 (Wed, 25 Nov 2009) | 1 line

Update by Vit Pelcak
------------------------------------------------------------------------
r1054091 | bando | 2009-11-25 13:34:45 +0000 (Wed, 25 Nov 2009) | 1 line

SVN_SILENT: Summit scatter.
------------------------------------------------------------------------
r1054093 | schwarzer | 2009-11-25 13:36:07 +0000 (Wed, 25 Nov 2009) | 1 line

translation fix
------------------------------------------------------------------------
r1054111 | tszanto | 2009-11-25 14:52:13 +0000 (Wed, 25 Nov 2009) | 1 line

Tamas Szanto
------------------------------------------------------------------------
r1054112 | lueck | 2009-11-25 15:08:08 +0000 (Wed, 25 Nov 2009) | 1 line

updating language x-test
------------------------------------------------------------------------
r1054117 | tszanto | 2009-11-25 15:11:58 +0000 (Wed, 25 Nov 2009) | 1 line

Tamas Szanto
------------------------------------------------------------------------
r1054190 | huftis | 2009-11-25 18:20:24 +0000 (Wed, 25 Nov 2009) | 1 line

Updated Norwegian Nynorsk translations for kde4-stable.
------------------------------------------------------------------------
r1054200 | yurchor | 2009-11-25 18:30:10 +0000 (Wed, 25 Nov 2009) | 1 line

Ukrainian translation update for stable
------------------------------------------------------------------------
r1054258 | ilic | 2009-11-25 19:34:36 +0000 (Wed, 25 Nov 2009) | 1 line

SVN_SILENT: Summit scatter.
------------------------------------------------------------------------
r1054265 | huftis | 2009-11-25 19:40:30 +0000 (Wed, 25 Nov 2009) | 1 line

Updated Norwegian Bokmål translations for kde4-stable.
------------------------------------------------------------------------
r1054388 | ilic | 2009-11-25 23:17:54 +0000 (Wed, 25 Nov 2009) | 1 line

SVN_SILENT: Summit scatter.
------------------------------------------------------------------------
r1054398 | ilic | 2009-11-25 23:48:45 +0000 (Wed, 25 Nov 2009) | 1 line

SVN_SILENT: Pmap updates.
------------------------------------------------------------------------
r1054405 | ilic | 2009-11-26 00:01:01 +0000 (Thu, 26 Nov 2009) | 1 line

SVN_SILENT: Summit scatter.
------------------------------------------------------------------------
r1054419 | scripty | 2009-11-26 00:33:47 +0000 (Thu, 26 Nov 2009) | 1 line

SVN_SILENT made messages (.pot file)
------------------------------------------------------------------------
r1054421 | scripty | 2009-11-26 00:35:31 +0000 (Thu, 26 Nov 2009) | 1 line

SVN_SILENT made messages (desktop*.pot file committed)
------------------------------------------------------------------------
r1054457 | zpintar | 2009-11-26 02:28:11 +0000 (Thu, 26 Nov 2009) | 1 line

Updated Croatian translations for kde4-stable.
------------------------------------------------------------------------
r1054477 | scripty | 2009-11-26 04:01:16 +0000 (Thu, 26 Nov 2009) | 1 line

SVN_SILENT made messages (.po file)
------------------------------------------------------------------------
r1054493 | scripty | 2009-11-26 04:43:23 +0000 (Thu, 26 Nov 2009) | 1 line

check_po_files
------------------------------------------------------------------------
r1054641 | pvidalis | 2009-11-26 11:26:53 +0000 (Thu, 26 Nov 2009) | 1 line


------------------------------------------------------------------------
r1054664 | bando | 2009-11-26 13:03:42 +0000 (Thu, 26 Nov 2009) | 1 line

SVN_SILENT: Summit scatter.
------------------------------------------------------------------------
r1054771 | ilic | 2009-11-26 18:38:46 +0000 (Thu, 26 Nov 2009) | 1 line

SVN_SILENT: Summit scatter.
------------------------------------------------------------------------
r1054835 | ecuadra | 2009-11-26 22:15:09 +0000 (Thu, 26 Nov 2009) | 1 line

SVN_SILENT Translation update
------------------------------------------------------------------------
r1054871 | scripty | 2009-11-27 00:30:17 +0000 (Fri, 27 Nov 2009) | 1 line

SVN_SILENT made messages (.pot file)
------------------------------------------------------------------------
r1054872 | scripty | 2009-11-27 00:31:53 +0000 (Fri, 27 Nov 2009) | 1 line

SVN_SILENT made messages (desktop*.pot file committed)
------------------------------------------------------------------------
r1054892 | zpintar | 2009-11-27 02:28:23 +0000 (Fri, 27 Nov 2009) | 1 line

Updated Croatian translations for kde4-stable.
------------------------------------------------------------------------
r1054902 | scripty | 2009-11-27 03:54:51 +0000 (Fri, 27 Nov 2009) | 1 line

SVN_SILENT made messages (.po file)
------------------------------------------------------------------------
r1054966 | tszanto | 2009-11-27 09:20:20 +0000 (Fri, 27 Nov 2009) | 1 line

Tamas Szanto
------------------------------------------------------------------------
r1054967 | tszanto | 2009-11-27 09:23:45 +0000 (Fri, 27 Nov 2009) | 1 line

Tamas Szanto
------------------------------------------------------------------------
r1054985 | tszanto | 2009-11-27 09:31:59 +0000 (Fri, 27 Nov 2009) | 1 line

Tamas Szanto
------------------------------------------------------------------------
r1055003 | fdekruijf | 2009-11-27 09:40:15 +0000 (Fri, 27 Nov 2009) | 1 line

update
------------------------------------------------------------------------
r1055010 | tszanto | 2009-11-27 09:42:21 +0000 (Fri, 27 Nov 2009) | 1 line

Tamas Szanto
------------------------------------------------------------------------
r1055018 | tszanto | 2009-11-27 09:44:50 +0000 (Fri, 27 Nov 2009) | 1 line

Tamas Szanto
------------------------------------------------------------------------
r1055071 | tszanto | 2009-11-27 10:07:54 +0000 (Fri, 27 Nov 2009) | 1 line

Tamas Szanto
------------------------------------------------------------------------
r1055082 | ecuadra | 2009-11-27 10:13:59 +0000 (Fri, 27 Nov 2009) | 1 line

SVN_SILENT Unify some translations
------------------------------------------------------------------------
r1055084 | tszanto | 2009-11-27 10:18:52 +0000 (Fri, 27 Nov 2009) | 1 line

Tamas Szanto
------------------------------------------------------------------------
r1055105 | tszanto | 2009-11-27 10:35:00 +0000 (Fri, 27 Nov 2009) | 1 line

Tamas Szanto
------------------------------------------------------------------------
r1055140 | tszanto | 2009-11-27 12:29:00 +0000 (Fri, 27 Nov 2009) | 1 line

Tamas Szanto
------------------------------------------------------------------------
