------------------------------------------------------------------------
r1168117 | lueck | 2010-08-26 08:15:41 +0100 (dj, 26 ago 2010) | 1 line

screenshot update
------------------------------------------------------------------------
r1167359 | jriddell | 2010-08-24 13:06:04 +0100 (dt, 24 ago 2010) | 1 line

don't break string freeze in branch, just hide label instead
------------------------------------------------------------------------
r1167352 | jriddell | 2010-08-24 13:03:11 +0100 (dt, 24 ago 2010) | 3 lines

Fill in missing label
BUG:247068

------------------------------------------------------------------------
r1167349 | jriddell | 2010-08-24 12:54:11 +0100 (dt, 24 ago 2010) | 1 line

Fix issues with PyQt 4.7 backport of Committed revision 1167347
------------------------------------------------------------------------
r1159719 | scripty | 2010-08-06 03:16:52 +0100 (dv, 06 ago 2010) | 1 line

SVN_SILENT made messages (.desktop file)
------------------------------------------------------------------------
