<?xml version="1.0" encoding="UTF-8" standalone="no"?>
<!-- Created with Inkscape (http://www.inkscape.org/) -->

<svg
   xmlns:dc="http://purl.org/dc/elements/1.1/"
   xmlns:cc="http://creativecommons.org/ns#"
   xmlns:rdf="http://www.w3.org/1999/02/22-rdf-syntax-ns#"
   xmlns:svg="http://www.w3.org/2000/svg"
   xmlns="http://www.w3.org/2000/svg"
   xmlns:sodipodi="http://sodipodi.sourceforge.net/DTD/sodipodi-0.dtd"
   xmlns:inkscape="http://www.inkscape.org/namespaces/inkscape"
   width="800"
   height="200"
   viewBox="0 0 800.00001 200"
   id="svg2"
   version="1.1"
   inkscape:version="0.91 r13725"
   sodipodi:docname="font-sample.svg">
  <defs
     id="defs4" />
  <sodipodi:namedview
     id="base"
     pagecolor="#ffffff"
     bordercolor="#666666"
     borderopacity="1.0"
     inkscape:pageopacity="0.0"
     inkscape:pageshadow="2"
     inkscape:zoom="2.8284271"
     inkscape:cx="369.83434"
     inkscape:cy="59.85664"
     inkscape:document-units="px"
     inkscape:current-layer="layer1"
     showgrid="false"
     units="px"
     inkscape:window-width="3840"
     inkscape:window-height="2045"
     inkscape:window-x="0"
     inkscape:window-y="0"
     inkscape:window-maximized="1">
    <inkscape:grid
       type="xygrid"
       id="grid4142" />
  </sodipodi:namedview>
  <metadata
     id="metadata7">
    <rdf:RDF>
      <cc:Work
         rdf:about="">
        <dc:format>image/svg+xml</dc:format>
        <dc:type
           rdf:resource="http://purl.org/dc/dcmitype/StillImage" />
        <dc:title></dc:title>
      </cc:Work>
    </rdf:RDF>
  </metadata>
  <g
     inkscape:label="Layer 1"
     inkscape:groupmode="layer"
     id="layer1"
     transform="translate(0,-852.36216)">
    <path
       inkscape:connector-curvature="0"
       id="path4257"
       style="font-style:normal;font-variant:normal;font-weight:normal;font-stretch:normal;font-size:medium;line-height:125%;font-family:Kabel;-inkscape-font-specification:Kabel;text-align:center;letter-spacing:0px;word-spacing:0px;text-anchor:middle;fill:#343031;fill-opacity:1;stroke:none;stroke-width:1px;stroke-linecap:butt;stroke-linejoin:miter;stroke-opacity:1"
       d="m 167.83966,894.81885 -9.0618,0 0,27.55975 -9.33706,0.81479 0,-28.37454 -9.7885,0 2.43336,-8.74249 25.754,0 0,8.74249 z" />
    <path
       inkscape:connector-curvature="0"
       id="path4259"
       style="font-style:normal;font-variant:normal;font-weight:normal;font-stretch:normal;font-size:medium;line-height:125%;font-family:Kabel;-inkscape-font-specification:Kabel;text-align:center;letter-spacing:0px;word-spacing:0px;text-anchor:middle;fill:#343031;fill-opacity:1;stroke:none;stroke-width:1px;stroke-linecap:butt;stroke-linejoin:miter;stroke-opacity:1"
       d="m 180.67812,908.21886 0,14.15974 -8.52227,0.81479 0,-37.11703 8.52227,-0.85883 0,12.22186 q 0.0881,-0.0881 0.72671,-0.85883 0.58356,-0.7157 1.89384,-1.35432 1.25522,-0.58356 3.01693,-0.58356 3.6115,0 5.59342,1.71767 1.98193,1.70665 2.66459,3.78767 0.62761,2.07001 0.62761,3.64454 l 0,18.67413 -8.43419,0.53952 0,-16.14167 q 0,-4.37124 -2.60953,-4.37124 -0.18718,0 -0.36335,0 -1.39836,0.0881 -2.25719,1.26623 -0.85884,1.16713 -0.85884,4.45933 z" />
    <path
       inkscape:connector-curvature="0"
       id="path4261"
       style="font-style:normal;font-variant:normal;font-weight:normal;font-stretch:normal;font-size:medium;line-height:125%;font-family:Kabel;-inkscape-font-specification:Kabel;text-align:center;letter-spacing:0px;word-spacing:0px;text-anchor:middle;fill:#343031;fill-opacity:1;stroke:none;stroke-width:1px;stroke-linecap:butt;stroke-linejoin:miter;stroke-opacity:1"
       d="m 228.07913,903.07687 -17.36385,10.91159 q 0.36335,0.45144 1.67362,1.07904 1.07905,0.55054 3.11603,0.55054 0.26425,0 0.58356,0 1.4424,-0.14314 2.92885,-0.77075 1.4424,-0.62761 2.4774,-1.35431 1.04602,-0.7157 1.04602,-0.81479 l 4.3272,6.62843 q -0.59458,0.45144 -2.08102,1.35431 -1.48645,0.90288 -3.96385,1.8498 -2.53246,0.94692 -5.31816,0.99096 -0.0991,0 -0.18718,0 -4.05194,0 -7.44323,-1.84979 -3.51241,-1.83879 -5.54939,-5.13098 -2.02596,-3.2922 -2.07001,-7.35514 0,-0.0881 0,-0.18719 0,-3.51241 1.62959,-6.67247 1.66261,-3.20411 4.6355,-5.27412 2.98389,-2.07001 6.68348,-2.47741 0.94692,-0.0881 1.8498,-0.0881 2.4774,0 4.69055,0.80378 2.92884,1.17814 4.69055,2.84076 1.7507,1.71766 2.5655,3.02793 0.81479,1.31028 1.07904,1.93789 z m -19.84126,5.72555 9.87659,-6.17699 q -0.31931,-0.23123 -1.12309,-0.53953 -0.85883,-0.31931 -2.12506,-0.31931 -2.79672,0 -4.69056,2.12507 -1.93788,2.15809 -1.93788,4.91076 z" />
    <path
       inkscape:connector-curvature="0"
       id="path4263"
       style="font-style:normal;font-variant:normal;font-weight:normal;font-stretch:normal;font-size:medium;line-height:125%;font-family:Kabel;-inkscape-font-specification:Kabel;text-align:center;letter-spacing:0px;word-spacing:0px;text-anchor:middle;fill:#343031;fill-opacity:1;stroke:none;stroke-width:1px;stroke-linecap:butt;stroke-linejoin:miter;stroke-opacity:1"
       d="m 261.37545,915.61804 q 2.65358,-0.14314 4.64651,-2.44437 1.66262,-1.93788 1.66262,-4.3272 0,-0.4074 -0.044,-0.8148 -0.36336,-2.7857 -2.52145,-4.54741 -1.89384,-1.48644 -4.15103,-1.48644 -0.4074,0 -0.81479,0.044 -1.8498,0.22021 -3.24816,1.25522 -1.4424,1.04601 -2.15809,2.66459 -0.63862,1.35431 -0.63862,2.84075 0,0.36336 0.044,0.72671 0.23123,2.56549 2.40033,4.37124 1.98193,1.71767 4.45933,1.71767 0.17617,0 0.36335,0 z m 6.45227,-17.72721 0,-2.4774 7.98275,-0.85884 0,36.88581 -7.98275,0.81479 0,-11.81447 q -0.18718,0.13213 -0.55054,0.45144 -0.39638,0.31931 -1.39835,0.90287 -0.99097,0.58357 -2.2572,0.99097 -1.25521,0.40739 -2.7857,0.53952 -0.45144,0.044 -0.85883,0.044 -2.5765,0 -5.00987,-0.94692 -2.84075,-1.035 -4.95481,-3.06097 -2.12506,-1.99293 -3.33623,-4.69055 -1.26623,-2.66459 -1.31028,-5.69253 0.0881,-0.17617 0.0881,-0.35234 0.044,-3.88677 2.07001,-7.26705 1.99293,-3.33624 5.37321,-5.23008 3.2922,-1.84979 7.16796,-1.84979 0,0 0.17617,0 4.06295,0.0881 7.58637,3.6115 z" />
    <path
       inkscape:connector-curvature="0"
       id="path4265"
       style="font-style:normal;font-variant:normal;font-weight:normal;font-stretch:normal;font-size:medium;line-height:125%;font-family:Kabel;-inkscape-font-specification:Kabel;text-align:center;letter-spacing:0px;word-spacing:0px;text-anchor:middle;fill:#343031;fill-opacity:1;stroke:none;stroke-width:1px;stroke-linecap:butt;stroke-linejoin:miter;stroke-opacity:1"
       d="m 290.16839,894.55459 0,16.2738 q 0,0.36335 -0.0881,0.63862 0.22021,4.64651 2.75267,4.64651 0.39639,0 0.84782,-0.0991 2.03698,-0.53952 2.70863,-2.24618 0.68267,-1.71766 0.68267,-4.60246 l 0,-13.93954 8.07083,-0.67165 0,27.73593 -7.98275,0.99096 0,-3.02794 q -0.14314,0.23122 -0.4184,0.59458 -0.26426,0.36335 -1.12309,1.035 -0.89187,0.67165 -2.07001,1.07905 -1.22219,0.40739 -2.84076,0.53952 -0.22022,0 -0.45144,0 -2.16911,0 -4.0189,-1.035 -2.07001,-1.12309 -3.2922,-3.24816 -1.21117,-2.07001 -1.21117,-4.60246 l 0,-19.30174 8.43418,-0.75974 z" />
    <path
       inkscape:connector-curvature="0"
       id="path4267"
       style="font-style:normal;font-variant:normal;font-weight:normal;font-stretch:normal;font-size:medium;line-height:125%;font-family:Kabel;-inkscape-font-specification:Kabel;text-align:center;letter-spacing:0px;word-spacing:0px;text-anchor:middle;fill:#343031;fill-opacity:1;stroke:none;stroke-width:1px;stroke-linecap:butt;stroke-linejoin:miter;stroke-opacity:1"
       d="m 317.68411,893.65172 -5.91274,-4.55843 5.18604,-5.3622 6.27609,4.45933 -5.54939,5.4613 z m -4.51438,1.93788 8.52227,-1.03501 0,27.64784 -8.52227,0.62761 0,-27.24044 z" />
    <path
       inkscape:connector-curvature="0"
       id="path4269"
       style="font-style:normal;font-variant:normal;font-weight:normal;font-stretch:normal;font-size:medium;line-height:125%;font-family:Kabel;-inkscape-font-specification:Kabel;text-align:center;letter-spacing:0px;word-spacing:0px;text-anchor:middle;fill:#343031;fill-opacity:1;stroke:none;stroke-width:1px;stroke-linecap:butt;stroke-linejoin:miter;stroke-opacity:1"
       d="m 353.35874,897.89083 -4.51438,6.00083 q -0.13213,-0.14314 -0.45144,-0.4074 -0.36336,-0.23122 -0.94692,-0.53952 -0.62761,-0.31931 -1.70666,-0.59458 -0.94692,-0.22021 -1.80575,-0.22021 -0.14314,0 -0.27527,0 -2.8848,0.044 -4.69055,2.21314 -1.66262,2.02597 -1.66262,4.54742 0,0.27527 0,0.53952 0.13213,2.93986 1.89384,4.60247 1.7507,1.71767 4.45933,1.76171 1.62958,0 2.75267,-0.4074 1.07905,-0.40739 1.80576,-0.99096 0.62761,-0.49548 0.62761,-0.53952 0,0 0,0 l 4.64651,6.13295 q -0.99097,0.85884 -3.46837,2.16911 -2.53246,1.29926 -6.27609,1.4424 0,0 -0.17617,0 -4.3272,0 -7.70749,-1.8498 -3.47937,-1.89384 -5.37321,-5.28513 -1.89384,-3.33624 -1.89384,-7.38817 0,-3.93082 1.89384,-7.35514 1.84979,-3.38028 5.18603,-5.3622 3.2922,-1.99294 7.53131,-1.99294 4.38226,0 6.85966,1.31027 2.47741,1.31028 3.2922,2.21315 z" />
    <path
       inkscape:connector-curvature="0"
       id="path4271"
       style="font-style:normal;font-variant:normal;font-weight:normal;font-stretch:normal;font-size:medium;line-height:125%;font-family:Kabel;-inkscape-font-specification:Kabel;text-align:center;letter-spacing:0px;word-spacing:0px;text-anchor:middle;fill:#343031;fill-opacity:1;stroke:none;stroke-width:1px;stroke-linecap:butt;stroke-linejoin:miter;stroke-opacity:1"
       d="m 376.92162,923.50169 -9.74446,-13.43304 0,12.22187 -8.56632,0.81479 0,-37.02895 8.56632,-1.035 0,21.7351 9.24897,-12.49713 8.43419,2.66458 -9.06179,11.31899 10.22892,12.99261 -9.10583,2.24618 z" />
    <path
       inkscape:connector-curvature="0"
       id="path4273"
       style="font-style:normal;font-variant:normal;font-weight:normal;font-stretch:normal;font-size:medium;line-height:125%;font-family:Kabel;-inkscape-font-specification:Kabel;text-align:center;letter-spacing:0px;word-spacing:0px;text-anchor:middle;fill:#343031;fill-opacity:1;stroke:none;stroke-width:1px;stroke-linecap:butt;stroke-linejoin:miter;stroke-opacity:1"
       d="m 404.9438,886.07636 8.48924,-0.94692 0,11.45112 q 3.01693,-1.93788 6.93673,-1.93788 4.0189,0 7.39918,1.98192 3.33624,1.98193 5.27412,5.41726 1.8498,3.33624 1.8498,7.30009 0,0.0881 0,0.18718 -0.0441,2.92884 -1.16714,5.45029 -1.1341,2.5765 -3.16006,4.47034 -2.02597,1.93788 -4.7346,3.06097 -2.70863,1.1341 -5.63747,1.17814 -3.01693,0 -5.72556,-1.09006 -2.75267,-1.035 -4.87773,-2.92884 -2.11406,-1.89384 -3.38028,-4.50337 -1.26623,-2.62054 -1.26623,-5.54939 l 0,-23.54085 z m 14.30288,16.31784 q -2.84076,0.0991 -4.77864,2.40033 -1.71767,1.98193 -1.71767,4.37125 0,0.40739 0.0441,0.81479 0.31931,2.74166 2.4774,4.37124 1.8498,1.48644 4.33821,1.48644 0.3083,0 0.67165,-0.044 1.8498,-0.22021 3.24816,-1.26623 1.39836,-0.99096 2.1691,-2.65358 0.62761,-1.31027 0.62761,-2.75267 0,-0.31931 -0.044,-0.68266 -0.13213,-1.70666 -1.1341,-3.10501 -0.99096,-1.35432 -2.60953,-2.16911 -1.57453,-0.77075 -3.11603,-0.77075 0,0 -0.17617,0 z" />
    <path
       inkscape:connector-curvature="0"
       id="path4275"
       style="font-style:normal;font-variant:normal;font-weight:normal;font-stretch:normal;font-size:medium;line-height:125%;font-family:Kabel;-inkscape-font-specification:Kabel;text-align:center;letter-spacing:0px;word-spacing:0px;text-anchor:middle;fill:#343031;fill-opacity:1;stroke:none;stroke-width:1px;stroke-linecap:butt;stroke-linejoin:miter;stroke-opacity:1"
       d="m 448.0947,911.01557 0,11.45112 -8.97371,0.85883 0,-27.64784 8.39014,-1.035 0,4.55842 q 1.03501,-2.03697 3.11603,-3.20411 2.02596,-1.17814 4.37124,-1.17814 0.7157,0 1.31027,0.044 0.58357,0.0991 0.80378,0.14314 l -2.74166,8.61036 q -0.0991,-0.044 -0.45144,-0.13213 -0.36335,-0.044 -0.94692,-0.044 -0.81479,0 -1.84979,0.26425 -1.8498,0.53953 -2.44437,1.98193 -0.58357,1.49745 -0.67166,3.93081 0.0881,0.45144 0.0881,1.39836 z" />
    <path
       inkscape:connector-curvature="0"
       id="path4277"
       style="font-style:normal;font-variant:normal;font-weight:normal;font-stretch:normal;font-size:medium;line-height:125%;font-family:Kabel;-inkscape-font-specification:Kabel;text-align:center;letter-spacing:0px;word-spacing:0px;text-anchor:middle;fill:#343031;fill-opacity:1;stroke:none;stroke-width:1px;stroke-linecap:butt;stroke-linejoin:miter;stroke-opacity:1"
       d="m 474.9938,894.10315 q 0,0 0.35234,0 4.23911,0 7.57535,1.80576 3.47938,1.89384 5.4613,5.23007 1.93788,3.33624 1.93788,7.48727 l 0,0.0881 q -0.044,3.83172 -1.89383,7.03583 -1.8498,3.20411 -5.05391,5.18603 -3.1931,1.98192 -6.89269,2.25719 -0.49548,0.044 -0.99096,0.044 -3.47938,0 -6.68349,-1.58553 -3.74363,-1.79475 -5.94577,-5.0429 -2.25719,-3.24815 -2.38932,-7.35514 0,-0.27527 0,-0.53952 0,-3.61151 1.80575,-6.85966 1.93788,-3.42432 5.36221,-5.53838 3.38028,-2.08102 7.35514,-2.21315 z m 0.35234,7.93871 q -1.79474,0.0881 -3.24815,0.94692 -1.4424,0.90288 -2.24618,2.43336 -0.85884,1.53049 -0.85884,3.20411 0,2.65358 1.93788,4.54742 1.93788,1.89383 4.60247,1.89383 2.75267,-0.0881 4.64651,-1.98192 1.8498,-1.84979 1.8498,-4.54741 0,-2.79672 -1.9489,-4.69056 -1.93788,-1.80575 -4.6355,-1.80575 -0.055,0 -0.0991,0 z" />
    <path
       inkscape:connector-curvature="0"
       id="path4279"
       style="font-style:normal;font-variant:normal;font-weight:normal;font-stretch:normal;font-size:medium;line-height:125%;font-family:Kabel;-inkscape-font-specification:Kabel;text-align:center;letter-spacing:0px;word-spacing:0px;text-anchor:middle;fill:#343031;fill-opacity:1;stroke:none;stroke-width:1px;stroke-linecap:butt;stroke-linejoin:miter;stroke-opacity:1"
       d="m 512.40812,908.53817 -7.212,15.1507 -12.22187,-28.18736 8.52228,-0.94692 4.3272,12.84948 6.76056,-14.11571 6.62843,13.66427 4.38226,-12.39804 8.47823,0.67165 -12.26591,28.72689 -7.39918,-15.41496 z" />
    <path
       inkscape:connector-curvature="0"
       id="path4281"
       style="font-style:normal;font-variant:normal;font-weight:normal;font-stretch:normal;font-size:medium;line-height:125%;font-family:Kabel;-inkscape-font-specification:Kabel;text-align:center;letter-spacing:0px;word-spacing:0px;text-anchor:middle;fill:#343031;fill-opacity:1;stroke:none;stroke-width:1px;stroke-linecap:butt;stroke-linejoin:miter;stroke-opacity:1"
       d="m 550.48308,923.10531 0,-16.0646 q 0,-5.08693 -3.24816,-5.08693 -3.20411,0 -3.20411,5.08693 l 0,15.42598 -8.52227,0.7267 0,-27.60379 7.93871,-0.94692 0,3.06097 q 0,-0.0881 0.77075,-0.89187 0.71569,-0.77074 2.15809,-1.48644 1.4424,-0.7267 3.74364,-0.85883 0.23122,0 0.45143,0 3.42433,0 5.82466,2.43336 2.52144,2.60953 2.52144,6.44125 l 0,19.03748 -8.43418,0.72671 z" />
    <path
       inkscape:connector-curvature="0"
       id="path4283"
       style="font-style:normal;font-variant:normal;font-weight:normal;font-stretch:normal;font-size:medium;line-height:125%;font-family:Kabel;-inkscape-font-specification:Kabel;text-align:center;letter-spacing:0px;word-spacing:0px;text-anchor:middle;fill:#343031;fill-opacity:1;stroke:none;stroke-width:1px;stroke-linecap:butt;stroke-linejoin:miter;stroke-opacity:1"
       d="m 586.57613,887.51876 q 3.20411,-3.38028 10.06377,-3.38028 l 0.62761,0 2.25719,7.75153 q -1.26623,-0.58357 -2.70863,-0.58357 -1.71766,0 -3.16006,1.07905 -1.4424,1.07904 -1.70666,2.75267 0.0881,0.26426 0.0881,0.27527 0,0 0,0.0881 l 5.63748,0 0,7.39918 -5.4613,0 0,19.47791 -8.52228,0.72671 0,-20.11653 -4.51438,0 2.03698,-7.39918 2.56549,0 q 0,0 0,-0.0881 0,0 -0.0881,-0.18718 0.36336,-5.08694 2.8848,-7.79557 z" />
    <path
       inkscape:connector-curvature="0"
       id="path4285"
       style="font-style:normal;font-variant:normal;font-weight:normal;font-stretch:normal;font-size:medium;line-height:125%;font-family:Kabel;-inkscape-font-specification:Kabel;text-align:center;letter-spacing:0px;word-spacing:0px;text-anchor:middle;fill:#343031;fill-opacity:1;stroke:none;stroke-width:1px;stroke-linecap:butt;stroke-linejoin:miter;stroke-opacity:1"
       d="m 616.98763,894.10315 q 0,0 0.35234,0 4.23912,0 7.57536,1.80576 3.47937,1.89384 5.4613,5.23007 1.93788,3.33624 1.93788,7.48727 l 0,0.0881 q -0.044,3.83172 -1.89384,7.03583 -1.84979,3.20411 -5.0539,5.18603 -3.1931,1.98192 -6.8927,2.25719 -0.49548,0.044 -0.99096,0.044 -3.47937,0 -6.68348,-1.58553 -3.74364,-1.79475 -5.94578,-5.0429 -2.25719,-3.24815 -2.38932,-7.35514 0,-0.27527 0,-0.53952 0,-3.61151 1.80576,-6.85966 1.93788,-3.42432 5.3622,-5.53838 3.38028,-2.08102 7.35514,-2.21315 z m 0.35234,7.93871 q -1.79474,0.0881 -3.24815,0.94692 -1.4424,0.90288 -2.24618,2.43336 -0.85883,1.53049 -0.85883,3.20411 0,2.65358 1.93788,4.54742 1.93788,1.89383 4.60247,1.89383 2.75267,-0.0881 4.64651,-1.98192 1.84979,-1.84979 1.84979,-4.54741 0,-2.79672 -1.94889,-4.69056 -1.93788,-1.80575 -4.6355,-1.80575 -0.0551,0 -0.0991,0 z" />
    <path
       inkscape:connector-curvature="0"
       id="path4287"
       style="font-style:normal;font-variant:normal;font-weight:normal;font-stretch:normal;font-size:medium;line-height:125%;font-family:Kabel;-inkscape-font-specification:Kabel;text-align:center;letter-spacing:0px;word-spacing:0px;text-anchor:middle;fill:#343031;fill-opacity:1;stroke:none;stroke-width:1px;stroke-linecap:butt;stroke-linejoin:miter;stroke-opacity:1"
       d="m 635.91501,895.76577 8.47823,-2.20214 5.45029,8.74249 5.54939,-8.6544 8.3461,2.02596 -9.24898,13.03666 9.33706,13.66426 -8.61035,2.47741 -5.63748,-9.42515 -5.82465,9.42515 -8.56632,-2.47741 9.70042,-13.66426 -8.97371,-12.94857 z" />
    <path
       inkscape:connector-curvature="0"
       id="path4289"
       style="font-style:normal;font-variant:normal;font-weight:normal;font-stretch:normal;font-size:medium;line-height:125%;font-family:Kabel;-inkscape-font-specification:Kabel;text-align:center;letter-spacing:0px;word-spacing:0px;text-anchor:middle;fill:#343031;fill-opacity:1;stroke:none;stroke-width:1px;stroke-linecap:butt;stroke-linejoin:miter;stroke-opacity:1"
       d="m 78.620056,975.86852 0,-23.9042 8.522273,-1.03501 0,25.79805 q 0,3.69959 -0.539524,5.59343 -0.594577,1.89383 -2.444373,3.74363 -2.697618,2.4774 -7.079872,2.4774 l -1.299261,0 -2.708629,-7.57535 q 0.08808,0 0.407395,0 0.308299,0.044 0.715695,0.0881 2.389319,0 3.336238,-0.99097 0.726706,-0.77074 0.902877,-1.71766 0.187181,-0.90288 0.187181,-2.47741 z m 4.371243,-25.66591 -5.912739,-4.54741 5.141991,-5.41726 6.320135,4.51438 -5.549387,5.45029 z" />
    <path
       inkscape:connector-curvature="0"
       id="path4291"
       style="font-style:normal;font-variant:normal;font-weight:normal;font-stretch:normal;font-size:medium;line-height:125%;font-family:Kabel;-inkscape-font-specification:Kabel;text-align:center;letter-spacing:0px;word-spacing:0px;text-anchor:middle;fill:#343031;fill-opacity:1;stroke:none;stroke-width:1px;stroke-linecap:butt;stroke-linejoin:miter;stroke-opacity:1"
       d="m 103.42714,950.92931 0,16.2738 q 0,0.36335 -0.0881,0.63862 0.22021,4.64651 2.75267,4.64651 0.39639,0 0.84782,-0.0991 2.03698,-0.53953 2.70863,-2.24619 0.68267,-1.71766 0.68267,-4.60246 l 0,-13.93953 8.07083,-0.67166 0,27.73593 -7.98275,0.99096 0,-3.02794 q -0.14314,0.23122 -0.4184,0.59458 -0.26426,0.36335 -1.12309,1.035 -0.89187,0.67165 -2.07001,1.07905 -1.22219,0.40739 -2.84076,0.53952 -0.22021,0 -0.45144,0 -2.1691,0 -4.0189,-1.035 -2.070009,-1.12309 -3.292196,-3.24815 -1.211175,-2.07001 -1.211175,-4.60247 l 0,-19.30174 8.434191,-0.75974 z" />
    <path
       inkscape:connector-curvature="0"
       id="path4293"
       style="font-style:normal;font-variant:normal;font-weight:normal;font-stretch:normal;font-size:medium;line-height:125%;font-family:Kabel;-inkscape-font-specification:Kabel;text-align:center;letter-spacing:0px;word-spacing:0px;text-anchor:middle;fill:#343031;fill-opacity:1;stroke:none;stroke-width:1px;stroke-linecap:butt;stroke-linejoin:miter;stroke-opacity:1"
       d="m 159.88994,978.75332 -8.247,0.53953 0,-16.54907 q 0,-1.98192 -0.53953,-3.29219 -0.45144,-1.07905 -1.89384,-1.07905 -0.27526,0 -0.59457,0.044 -1.7507,0.17617 -2.29023,1.39836 -0.59457,1.21118 -0.68266,3.24815 0.0881,0.53953 0.0881,1.34331 l 0,14.34692 -8.39015,0.62761 0,-16.41693 q 0,-4.6355 -2.38932,-4.6355 -0.26425,0 -0.58356,0.0881 -1.80576,0.3083 -2.25719,1.48645 -0.49548,1.16713 -0.49548,4.06294 l 0,14.78735 -8.61036,0.62761 0,-27.5047 8.02679,-0.94692 0,2.70863 q 0,-0.14314 0.62761,-0.81479 0.59457,-0.68266 1.80575,-1.31027 1.22219,-0.62761 3.24815,-0.77075 0.36336,-0.044 0.72671,-0.044 1.16713,0 2.15809,0.36335 1.26623,0.45144 1.98193,1.03501 0.68266,0.63862 1.17814,1.26623 0.49548,0.67165 0.49548,0.81479 1.53049,-1.80576 3.20411,-2.62055 1.66262,-0.77074 4.10699,-0.81479 0,0 0.17617,0 2.4774,0 4.55842,1.04602 2.1581,1.07905 3.38029,3.10501 1.21117,2.08102 1.21117,4.64651 l 0,19.21365 z" />
    <path
       inkscape:connector-curvature="0"
       id="path4295"
       style="font-style:normal;font-variant:normal;font-weight:normal;font-stretch:normal;font-size:medium;line-height:125%;font-family:Kabel;-inkscape-font-specification:Kabel;text-align:center;letter-spacing:0px;word-spacing:0px;text-anchor:middle;fill:#343031;fill-opacity:1;stroke:none;stroke-width:1px;stroke-linecap:butt;stroke-linejoin:miter;stroke-opacity:1"
       d="m 186.23852,965.90385 q 0,0 0,-0.55053 0,-1.53049 -0.59458,-2.92885 -0.75974,-1.61857 -2.1581,-2.65357 -1.4424,-1.00198 -3.24815,-1.17815 -0.45144,-0.044 -0.85883,-0.044 -1.39836,0 -2.70863,0.58357 -1.66262,0.77075 -2.69762,2.1691 -1.09006,1.4424 -1.31027,3.2922 -0.044,0.36335 -0.044,0.67165 0,2.48842 1.80575,4.51438 1.98192,2.34528 4.86672,2.38932 2.75267,0 4.77864,-1.84979 2.02597,-1.8498 2.16911,-4.41529 z m -5.82466,-15.06262 q 0.0991,0 0.18718,0 3.6005,0 6.80461,1.84979 3.29219,1.89384 5.32917,5.13099 2.02597,3.29219 2.07001,7.26705 0,3.83172 -1.93788,7.26705 -1.93788,3.42433 -5.31816,5.45029 -3.39129,2.07001 -7.3111,2.07001 l -0.0881,0 q -2.30124,-0.044 -4.15103,-1.035 -1.89384,-0.94692 -2.62055,-1.57453 l 0,10.37207 -8.69844,0.81479 0,-36.76469 8.07083,-0.75974 0,3.24816 q 3.24816,-3.24816 7.66344,-3.33624 z" />
    <path
       inkscape:connector-curvature="0"
       id="path4297"
       style="font-style:normal;font-variant:normal;font-weight:normal;font-stretch:normal;font-size:medium;line-height:125%;font-family:Kabel;-inkscape-font-specification:Kabel;text-align:center;letter-spacing:0px;word-spacing:0px;text-anchor:middle;fill:#343031;fill-opacity:1;stroke:none;stroke-width:1px;stroke-linecap:butt;stroke-linejoin:miter;stroke-opacity:1"
       d="m 225.78891,959.45159 -17.36385,10.91159 q 0.36335,0.45144 1.67362,1.07905 1.07905,0.55053 3.11603,0.55053 0.26425,0 0.58356,0 1.4424,-0.14314 2.92885,-0.77075 1.4424,-0.62761 2.4774,-1.35431 1.04602,-0.7157 1.04602,-0.81479 l 4.3272,6.62843 q -0.59458,0.45144 -2.08102,1.35432 -1.48645,0.90287 -3.96385,1.84979 -2.53246,0.94692 -5.31816,0.99096 -0.0991,0 -0.18719,0 -4.05193,0 -7.44322,-1.84979 -3.51241,-1.83879 -5.54939,-5.13098 -2.02596,-3.2922 -2.07001,-7.35514 0,-0.0881 0,-0.18718 0,-3.51241 1.62959,-6.67248 1.66261,-3.20411 4.63549,-5.27412 2.9839,-2.07001 6.68349,-2.47741 0.94692,-0.0881 1.8498,-0.0881 2.4774,0 4.69055,0.80378 2.92884,1.17814 4.69055,2.84076 1.7507,1.71766 2.56549,3.02794 0.81479,1.31027 1.07905,1.93788 z m -19.84126,5.72555 9.87659,-6.17699 q -0.31931,-0.23123 -1.12309,-0.53953 -0.85883,-0.3193 -2.12506,-0.3193 -2.79672,0 -4.69056,2.12506 -1.93788,2.15809 -1.93788,4.91076 z" />
    <path
       inkscape:connector-curvature="0"
       id="path4299"
       style="font-style:normal;font-variant:normal;font-weight:normal;font-stretch:normal;font-size:medium;line-height:125%;font-family:Kabel;-inkscape-font-specification:Kabel;text-align:center;letter-spacing:0px;word-spacing:0px;text-anchor:middle;fill:#343031;fill-opacity:1;stroke:none;stroke-width:1px;stroke-linecap:butt;stroke-linejoin:miter;stroke-opacity:1"
       d="m 236.97577,964.63762 q -0.044,0.4074 -0.044,0.77075 0,2.60953 1.67362,4.41528 1.83879,2.12507 4.37124,2.34528 0.31931,0.044 0.62761,0.044 2.47741,0 4.4263,-1.57452 2.15809,-1.71767 2.43336,-4.47034 0.044,-0.3083 0.044,-0.62761 0,-1.53049 -0.68266,-2.97289 -0.84782,-1.76171 -2.43336,-2.85177 -1.57453,-1.07904 -3.46837,-1.12309 0,0 -0.0881,0 -2.5765,0 -4.60247,1.76171 -2.08102,1.80576 -2.25719,4.28316 z m 5.91274,15.33789 q -0.18718,0 -0.36335,0 -3.61151,0 -6.67248,-1.76171 -3.24815,-1.8498 -5.24109,-5.18604 -1.98192,-3.33623 -2.02596,-7.22301 0,0 0,-0.17617 0,-3.78767 1.76171,-7.12391 1.80575,-3.42433 5.00986,-5.50535 3.14906,-2.07001 7.07987,-2.07001 4.77864,0 7.57535,2.79672 l 0,-11.18686 8.47823,-1.035 0,37.33724 -8.21397,0.81479 0,-2.5765 q -0.80378,0.81479 -2.65358,1.80575 -1.89383,0.99096 -4.73459,1.09006 z" />
    <path
       inkscape:connector-curvature="0"
       id="path4301"
       style="font-style:normal;font-variant:normal;font-weight:normal;font-stretch:normal;font-size:medium;line-height:125%;font-family:Kabel;-inkscape-font-specification:Kabel;text-align:center;letter-spacing:0px;word-spacing:0px;text-anchor:middle;fill:#343031;fill-opacity:1;stroke:none;stroke-width:1px;stroke-linecap:butt;stroke-linejoin:miter;stroke-opacity:1"
       d="m 293.80193,950.47788 q 0,0 0.35235,0 4.23911,0 7.57535,1.80575 3.47938,1.89384 5.4613,5.23008 1.93788,3.33623 1.93788,7.48726 l 0,0.0881 q -0.044,3.83172 -1.89384,7.03583 -1.84979,3.20411 -5.0539,5.18603 -3.1931,1.98193 -6.89269,2.25719 -0.49548,0.044 -0.99097,0.044 -3.47937,0 -6.68348,-1.58554 -3.74364,-1.79474 -5.94577,-5.0429 -2.2572,-3.24815 -2.38932,-7.35514 0,-0.27526 0,-0.53952 0,-3.61151 1.80575,-6.85966 1.93788,-3.42432 5.3622,-5.53838 3.38029,-2.08102 7.35514,-2.21314 z m 0.35235,7.9387 q -1.79475,0.0881 -3.24816,0.94692 -1.4424,0.90288 -2.24618,2.43336 -0.85883,1.53049 -0.85883,3.20411 0,2.65358 1.93788,4.54742 1.93788,1.89384 4.60247,1.89384 2.75267,-0.0881 4.64651,-1.98193 1.84979,-1.84979 1.84979,-4.54741 0,-2.79672 -1.94889,-4.69055 -1.93788,-1.80576 -4.6355,-1.80576 -0.055,0 -0.0991,0 z" />
    <path
       inkscape:connector-curvature="0"
       id="path4303"
       style="font-style:normal;font-variant:normal;font-weight:normal;font-stretch:normal;font-size:medium;line-height:125%;font-family:Kabel;-inkscape-font-specification:Kabel;text-align:center;letter-spacing:0px;word-spacing:0px;text-anchor:middle;fill:#343031;fill-opacity:1;stroke:none;stroke-width:1px;stroke-linecap:butt;stroke-linejoin:miter;stroke-opacity:1"
       d="m 325.57877,981.50599 -13.89549,-28.91406 8.52227,-1.57453 5.4613,12.6733 5.37322,-12.6733 8.29105,1.57453 -13.75235,28.91406 z" />
    <path
       inkscape:connector-curvature="0"
       id="path4305"
       style="font-style:normal;font-variant:normal;font-weight:normal;font-stretch:normal;font-size:medium;line-height:125%;font-family:Kabel;-inkscape-font-specification:Kabel;text-align:center;letter-spacing:0px;word-spacing:0px;text-anchor:middle;fill:#343031;fill-opacity:1;stroke:none;stroke-width:1px;stroke-linecap:butt;stroke-linejoin:miter;stroke-opacity:1"
       d="m 370.68958,959.45159 -17.36386,10.91159 q 0.36335,0.45144 1.67363,1.07905 1.07904,0.55053 3.11602,0.55053 0.26426,0 0.58357,0 1.4424,-0.14314 2.92884,-0.77075 1.4424,-0.62761 2.47741,-1.35431 1.04601,-0.7157 1.04601,-0.81479 l 4.3272,6.62843 q -0.59458,0.45144 -2.08102,1.35432 -1.48644,0.90287 -3.96385,1.84979 -2.53245,0.94692 -5.31816,0.99096 -0.0991,0 -0.18718,0 -4.05193,0 -7.44323,-1.84979 -3.5124,-1.83879 -5.54938,-5.13098 -2.02597,-3.2922 -2.07001,-7.35514 0,-0.0881 0,-0.18718 0,-3.51241 1.62958,-6.67248 1.66261,-3.20411 4.6355,-5.27412 2.9839,-2.07001 6.68349,-2.47741 0.94692,-0.0881 1.84979,-0.0881 2.47741,0 4.69056,0.80378 2.92884,1.17814 4.69055,2.84076 1.7507,1.71766 2.56549,3.02794 0.81479,1.31027 1.07905,1.93788 z m -19.84126,5.72555 9.87658,-6.17699 q -0.31931,-0.23123 -1.12309,-0.53953 -0.85883,-0.3193 -2.12506,-0.3193 -2.79671,0 -4.69055,2.12506 -1.93788,2.15809 -1.93788,4.91076 z" />
    <path
       inkscape:connector-curvature="0"
       id="path4307"
       style="font-style:normal;font-variant:normal;font-weight:normal;font-stretch:normal;font-size:medium;line-height:125%;font-family:Kabel;-inkscape-font-specification:Kabel;text-align:center;letter-spacing:0px;word-spacing:0px;text-anchor:middle;fill:#343031;fill-opacity:1;stroke:none;stroke-width:1px;stroke-linecap:butt;stroke-linejoin:miter;stroke-opacity:1"
       d="m 384.76123,967.39029 0,11.45112 -8.97371,0.85883 0,-27.64784 8.39015,-1.035 0,4.55842 q 1.035,-2.03697 3.11602,-3.20411 2.02597,-1.17814 4.37125,-1.17814 0.71569,0 1.31027,0.044 0.58356,0.0991 0.80378,0.14314 l -2.74166,8.61036 q -0.0991,-0.044 -0.45144,-0.13213 -0.36335,-0.044 -0.94692,-0.044 -0.81479,0 -1.8498,0.26426 -1.84979,0.53952 -2.44437,1.98192 -0.58357,1.49745 -0.67165,3.93082 0.0881,0.45143 0.0881,1.39835 z" />
    <path
       inkscape:connector-curvature="0"
       id="path4309"
       style="font-style:normal;font-variant:normal;font-weight:normal;font-stretch:normal;font-size:medium;line-height:125%;font-family:Kabel;-inkscape-font-specification:Kabel;text-align:center;letter-spacing:0px;word-spacing:0px;text-anchor:middle;fill:#343031;fill-opacity:1;stroke:none;stroke-width:1px;stroke-linecap:butt;stroke-linejoin:miter;stroke-opacity:1"
       d="m 425.19245,959.71584 0,7.67445 q 0,1.8498 0.4074,2.52145 0.36335,0.72671 1.4424,1.26623 0.62761,0.26426 2.30123,0.45144 0.77075,-0.044 1.8498,-0.23123 1.035,-0.13213 1.4424,-0.22021 l -2.47741,8.47823 q -0.18718,0 -0.68266,0 -0.49548,0.044 -1.16713,0.044 -4.23912,0 -6.94774,-1.67362 -4.77864,-2.74166 -4.77864,-8.61036 l 0,-9.70042 -4.55843,0 2.16911,-7.57535 2.65357,0 0,-5.27412 8.3461,-3.42432 0,8.69844 5.50535,0 0,7.57535 -5.50535,0 z" />
    <path
       inkscape:connector-curvature="0"
       id="path4311"
       style="font-style:normal;font-variant:normal;font-weight:normal;font-stretch:normal;font-size:medium;line-height:125%;font-family:Kabel;-inkscape-font-specification:Kabel;text-align:center;letter-spacing:0px;word-spacing:0px;text-anchor:middle;fill:#343031;fill-opacity:1;stroke:none;stroke-width:1px;stroke-linecap:butt;stroke-linejoin:miter;stroke-opacity:1"
       d="m 444.40612,964.59358 0,14.15974 -8.52227,0.81479 0,-37.11703 8.52227,-0.85883 0,12.22186 q 0.0881,-0.0881 0.72671,-0.85883 0.58356,-0.71569 1.89383,-1.35431 1.25522,-0.58357 3.01693,-0.58357 3.61151,0 5.59343,1.71767 1.98193,1.70665 2.66459,3.78767 0.62761,2.07001 0.62761,3.64454 l 0,18.67413 -8.43419,0.53952 0,-16.14167 q 0,-4.37124 -2.60953,-4.37124 -0.18718,0 -0.36335,0 -1.39836,0.0881 -2.2572,1.26623 -0.85883,1.16713 -0.85883,4.45933 z" />
    <path
       inkscape:connector-curvature="0"
       id="path4313"
       style="font-style:normal;font-variant:normal;font-weight:normal;font-stretch:normal;font-size:medium;line-height:125%;font-family:Kabel;-inkscape-font-specification:Kabel;text-align:center;letter-spacing:0px;word-spacing:0px;text-anchor:middle;fill:#343031;fill-opacity:1;stroke:none;stroke-width:1px;stroke-linecap:butt;stroke-linejoin:miter;stroke-opacity:1"
       d="m 491.80713,959.45159 -17.36385,10.91159 q 0.36335,0.45144 1.67362,1.07905 1.07905,0.55053 3.11602,0.55053 0.26426,0 0.58357,0 1.4424,-0.14314 2.92884,-0.77075 1.4424,-0.62761 2.47741,-1.35431 1.04601,-0.7157 1.04601,-0.81479 l 4.3272,6.62843 q -0.59457,0.45144 -2.08102,1.35432 -1.48644,0.90287 -3.96384,1.84979 -2.53246,0.94692 -5.31817,0.99096 -0.0991,0 -0.18718,0 -4.05193,0 -7.44322,-1.84979 -3.51241,-1.83879 -5.54939,-5.13098 -2.02596,-3.2922 -2.07001,-7.35514 0,-0.0881 0,-0.18718 0,-3.51241 1.62958,-6.67248 1.66262,-3.20411 4.6355,-5.27412 2.9839,-2.07001 6.68349,-2.47741 0.94692,-0.0881 1.8498,-0.0881 2.4774,0 4.69055,0.80378 2.92884,1.17814 4.69055,2.84076 1.7507,1.71766 2.56549,3.02794 0.81479,1.31027 1.07905,1.93788 z m -19.84126,5.72555 9.87659,-6.17699 q -0.31931,-0.23123 -1.12309,-0.53953 -0.85884,-0.3193 -2.12506,-0.3193 -2.79672,0 -4.69056,2.12506 -1.93788,2.15809 -1.93788,4.91076 z" />
    <path
       inkscape:connector-curvature="0"
       id="path4315"
       style="font-style:normal;font-variant:normal;font-weight:normal;font-stretch:normal;font-size:medium;line-height:125%;font-family:Kabel;-inkscape-font-specification:Kabel;text-align:center;letter-spacing:0px;word-spacing:0px;text-anchor:middle;fill:#343031;fill-opacity:1;stroke:none;stroke-width:1px;stroke-linecap:butt;stroke-linejoin:miter;stroke-opacity:1"
       d="m 512.60631,979.56811 0,-37.11703 8.62136,-0.85883 0,37.16107 -8.62136,0.81479 z" />
    <path
       inkscape:connector-curvature="0"
       id="path4317"
       style="font-style:normal;font-variant:normal;font-weight:normal;font-stretch:normal;font-size:medium;line-height:125%;font-family:Kabel;-inkscape-font-specification:Kabel;text-align:center;letter-spacing:0px;word-spacing:0px;text-anchor:middle;fill:#343031;fill-opacity:1;stroke:none;stroke-width:1px;stroke-linecap:butt;stroke-linejoin:miter;stroke-opacity:1"
       d="m 551.80438,959.90303 0,18.76221 -7.75153,0.90287 0,-2.30123 q 0,0.13213 -0.85883,0.75974 -0.90288,0.68266 -2.30124,1.22218 -1.4424,0.58357 -3.29219,0.62761 -0.0881,0 -0.18718,0 -2.60954,0 -4.86673,-1.12309 -2.38932,-1.16713 -3.74363,-3.33624 -1.39836,-2.12506 -1.39836,-5.0539 0,-2.70863 1.39836,-4.86673 1.35431,-2.1691 3.83172,-3.38028 2.21315,-1.09005 4.77864,-1.09005 0,0 0.55053,0 1.61857,0.044 2.92884,0.53952 1.25522,0.49548 2.07001,1.09006 0.80378,0.57255 0.81479,0.58356 0,-1.67362 -0.27526,-2.62054 -0.4074,-1.48644 -1.57453,-2.24618 -1.12309,-0.68266 -3.51241,-0.68266 -0.14314,0 -0.27527,0 -1.89384,0 -4.51438,0.99096 -2.65357,0.99096 -2.97288,1.31027 l 1.57452,-7.66344 q 0.0991,-0.0881 1.76171,-0.45144 1.67363,-0.36335 3.38028,-0.63862 1.67363,-0.26425 3.24816,-0.3083 0.27526,0 0.53952,0 2.70863,0 5.05391,0.85884 2.52144,0.99096 4.05193,2.97288 1.5415,1.98193 1.5415,5.142 z m -8.11488,10.37206 q 0,-1.62958 -1.22219,-2.66458 -1.16713,-0.94692 -2.84075,-0.94692 0,0 -0.17618,0 -1.62958,0.0881 -2.75267,0.99096 -1.17814,0.94692 -1.22218,2.38932 0,0.0991 0,0.18718 0,1.48644 1.09005,2.38932 1.16714,1.035 3.14906,1.035 1.67363,0 2.84076,-0.85883 1.1341,-0.84782 1.1341,-2.52145 z" />
    <path
       inkscape:connector-curvature="0"
       id="path4319"
       style="font-style:normal;font-variant:normal;font-weight:normal;font-stretch:normal;font-size:medium;line-height:125%;font-family:Kabel;-inkscape-font-specification:Kabel;text-align:center;letter-spacing:0px;word-spacing:0px;text-anchor:middle;fill:#343031;fill-opacity:1;stroke:none;stroke-width:1px;stroke-linecap:butt;stroke-linejoin:miter;stroke-opacity:1"
       d="m 558.81819,951.29267 20.56796,0 -10.69138,19.52195 11.01069,0 -2.12506,7.9387 -22.7701,0 11.08776,-19.66509 -9.01775,0 1.93788,-7.79556 z" />
    <path
       inkscape:connector-curvature="0"
       id="path4321"
       style="font-style:normal;font-variant:normal;font-weight:normal;font-stretch:normal;font-size:medium;line-height:125%;font-family:Kabel;-inkscape-font-specification:Kabel;text-align:center;letter-spacing:0px;word-spacing:0px;text-anchor:middle;fill:#343031;fill-opacity:1;stroke:none;stroke-width:1px;stroke-linecap:butt;stroke-linejoin:miter;stroke-opacity:1"
       d="m 596.8711,966.25619 6.72753,-16.05358 8.43418,2.03698 -16.64816,35.93888 -9.06179,-1.22218 6.00082,-11.45112 -10.8235,-23.26558 8.61036,-1.8498 6.76056,15.8664 z" />
    <path
       inkscape:connector-curvature="0"
       id="path4323"
       style="font-style:normal;font-variant:normal;font-weight:normal;font-stretch:normal;font-size:medium;line-height:125%;font-family:Kabel;-inkscape-font-specification:Kabel;text-align:center;letter-spacing:0px;word-spacing:0px;text-anchor:middle;fill:#343031;fill-opacity:1;stroke:none;stroke-width:1px;stroke-linecap:butt;stroke-linejoin:miter;stroke-opacity:1"
       d="m 636.70776,964.63762 q -0.044,0.4074 -0.044,0.77075 0,2.60953 1.67363,4.41528 1.83878,2.12507 4.37124,2.34528 0.31931,0.044 0.62761,0.044 2.4774,0 4.42629,-1.57452 2.1581,-1.71767 2.43337,-4.47034 0.044,-0.3083 0.044,-0.62761 0,-1.53049 -0.68266,-2.97289 -0.84783,-1.76171 -2.43337,-2.85177 -1.57452,-1.07904 -3.46836,-1.12309 0,0 -0.0881,0 -2.5765,0 -4.60246,1.76171 -2.08102,1.80576 -2.2572,4.28316 z m 5.91274,15.33789 q -0.18718,0 -0.36335,0 -3.6115,0 -6.67248,-1.76171 -3.24815,-1.8498 -5.24108,-5.18604 -1.98193,-3.33623 -2.02597,-7.22301 0,0 0,-0.17617 0,-3.78767 1.76171,-7.12391 1.80575,-3.42433 5.00986,-5.50535 3.14906,-2.07001 7.07988,-2.07001 4.77863,0 7.57535,2.79672 l 0,-11.18686 8.47823,-1.035 0,37.33724 -8.21398,0.81479 0,-2.5765 q -0.80378,0.81479 -2.65357,1.80575 -1.89384,0.99096 -4.7346,1.09006 z" />
    <path
       inkscape:connector-curvature="0"
       id="path4325"
       style="font-style:normal;font-variant:normal;font-weight:normal;font-stretch:normal;font-size:medium;line-height:125%;font-family:Kabel;-inkscape-font-specification:Kabel;text-align:center;letter-spacing:0px;word-spacing:0px;text-anchor:middle;fill:#343031;fill-opacity:1;stroke:none;stroke-width:1px;stroke-linecap:butt;stroke-linejoin:miter;stroke-opacity:1"
       d="m 678.82363,950.47788 q 0,0 0.35234,0 4.23912,0 7.57536,1.80575 3.47937,1.89384 5.4613,5.23008 1.93788,3.33623 1.93788,7.48726 l 0,0.0881 q -0.044,3.83172 -1.89384,7.03583 -1.84979,3.20411 -5.05391,5.18603 -3.19309,1.98193 -6.89269,2.25719 -0.49548,0.044 -0.99096,0.044 -3.47937,0 -6.68349,-1.58554 -3.74363,-1.79474 -5.94577,-5.0429 -2.25719,-3.24815 -2.38932,-7.35514 0,-0.27526 0,-0.53952 0,-3.61151 1.80576,-6.85966 1.93788,-3.42432 5.3622,-5.53838 3.38028,-2.08102 7.35514,-2.21314 z m 0.35234,7.9387 q -1.79474,0.0881 -3.24815,0.94692 -1.4424,0.90288 -2.24618,2.43336 -0.85883,1.53049 -0.85883,3.20411 0,2.65358 1.93788,4.54742 1.93788,1.89384 4.60247,1.89384 2.75267,-0.0881 4.64651,-1.98193 1.84979,-1.84979 1.84979,-4.54741 0,-2.79672 -1.94889,-4.69055 -1.93788,-1.80576 -4.6355,-1.80576 -0.0551,0 -0.0991,0 z" />
    <path
       inkscape:connector-curvature="0"
       id="path4327"
       style="font-style:normal;font-variant:normal;font-weight:normal;font-stretch:normal;font-size:medium;line-height:125%;font-family:Kabel;-inkscape-font-specification:Kabel;text-align:center;letter-spacing:0px;word-spacing:0px;text-anchor:middle;fill:#343031;fill-opacity:1;stroke:none;stroke-width:1px;stroke-linecap:butt;stroke-linejoin:miter;stroke-opacity:1"
       d="m 726.92936,949.93835 -1.76171,6.80461 -2.92884,0.27526 q 0.45144,0.45144 1.39836,2.2572 0.80378,1.61857 0.80378,3.23714 0,0.18718 0,0.36335 -0.13213,2.30123 -1.12309,4.0189 -0.99097,1.70666 -2.16911,2.52145 -1.16713,0.85883 -1.29926,0.94692 0.13213,0.0881 1.43139,0.99096 1.31027,0.90288 2.44437,2.62054 1.07905,1.76171 1.07905,4.3272 -0.044,4.92178 -4.15103,7.80658 -4.09598,2.8848 -9.33706,2.8848 -6.03386,0 -9.01776,-1.98192 -3.01692,-1.94889 -3.83172,-3.24815 l 4.7346,-5.18604 q 0,0 0,0 0,0.0881 0.94692,0.94692 1.035,0.94692 2.62054,1.66261 1.4424,0.72671 3.24816,0.72671 0,0 0.17617,0 5.95678,-0.23122 5.95678,-4.19507 -0.044,-2.25719 -1.62958,-3.43534 -1.61857,-1.16713 -4.09598,-1.25522 0,0 -0.55053,0 -1.4424,0 -2.60954,0.17618 -1.39835,0.27526 -2.4774,0.63862 -1.12309,0.39638 -1.1341,0.39638 l 0.90287,-2.60953 q -1.48644,-0.63862 -3.65554,-2.8848 -2.1581,-2.21315 -2.1581,-6.36418 0,0 0,-0.17617 0.044,-3.24815 1.70666,-5.78061 1.62958,-2.52145 4.42629,-3.96385 2.75268,-1.39836 5.90173,-1.4424 0.4074,0 0.77075,0 1.89384,0 3.61151,0.17617 2.02596,0.27527 2.92884,0.31931 4.86672,-0.49548 8.84158,-1.57453 z m -15.51406,7.75153 q -1.84979,0 -3.11602,1.26623 -1.26623,1.31027 -1.39836,3.24815 0,0.17617 0,0.36335 0,1.79474 1.12309,3.23714 1.26623,1.58554 3.20411,1.58554 1.58554,0 2.84076,-0.68266 1.22219,-0.67165 1.80575,-1.8498 0.53953,-1.07904 0.53953,-2.38931 0,0 0,-0.17618 -0.17618,-2.21314 -1.57453,-3.42432 -1.39836,-1.17814 -3.42433,-1.17814 z" />
    <path
       inkscape:connector-curvature="0"
       id="path4184"
       style="font-style:normal;font-variant:normal;font-weight:normal;font-stretch:normal;font-size:medium;line-height:125%;font-family:Kabel;-inkscape-font-specification:Kabel;text-align:center;letter-spacing:0px;word-spacing:0px;text-anchor:middle;fill:#343031;fill-opacity:1;stroke:none;stroke-width:1px;stroke-linecap:butt;stroke-linejoin:miter;stroke-opacity:1"
       d="m 148.81382,1009.7661 -3.44154,0 0,10.4668 -3.54608,0.3095 0,-10.7763 -3.71754,0 0.92416,-3.3203 9.781,0 0,3.3203 z" />
    <path
       inkscape:connector-curvature="0"
       id="path4186"
       style="font-style:normal;font-variant:normal;font-weight:normal;font-stretch:normal;font-size:medium;line-height:125%;font-family:Kabel;-inkscape-font-specification:Kabel;text-align:center;letter-spacing:0px;word-spacing:0px;text-anchor:middle;fill:#343031;fill-opacity:1;stroke:none;stroke-width:1px;stroke-linecap:butt;stroke-linejoin:miter;stroke-opacity:1"
       d="m 158.45265,1020.5424 0,-5.8252 -4.34897,0 0,5.5157 -3.68408,0.3095 0,-14.0966 3.68408,-0.2927 0,5.3777 4.34897,0 0,-5.085 3.70081,-0.3261 0,14.1132 -3.70081,0.3095 z" />
    <path
       inkscape:connector-curvature="0"
       id="path4188"
       style="font-style:normal;font-variant:normal;font-weight:normal;font-stretch:normal;font-size:medium;line-height:125%;font-family:Kabel;-inkscape-font-specification:Kabel;text-align:center;letter-spacing:0px;word-spacing:0px;text-anchor:middle;fill:#343031;fill-opacity:1;stroke:none;stroke-width:1px;stroke-linecap:butt;stroke-linejoin:miter;stroke-opacity:1"
       d="m 163.80105,1020.2329 0,-13.7871 8.22123,0 0.70253,3.0485 -5.37767,0 0,2.1745 3.86808,0 0,3.0484 -3.90154,0 0,2.4672 5.78748,0 -0.90743,3.0485 -8.39268,0 z" />
    <path
       inkscape:connector-curvature="0"
       id="path4190"
       style="font-style:normal;font-variant:normal;font-weight:normal;font-stretch:normal;font-size:medium;line-height:125%;font-family:Kabel;-inkscape-font-specification:Kabel;text-align:center;letter-spacing:0px;word-spacing:0px;text-anchor:middle;fill:#343031;fill-opacity:1;stroke:none;stroke-width:1px;stroke-linecap:butt;stroke-linejoin:miter;stroke-opacity:1"
       d="m 188.18875,1009.3563 q -0.0711,0 -0.13799,0 -1.0287,0 -1.90268,0.4642 -0.94088,0.5143 -1.50541,1.4552 -0.58126,0.9576 -0.59799,2.1745 0.0293,0 0.0335,0 0,0.013 0,0.017 0.0167,1.4218 0.97433,2.5007 0.94089,1.0789 2.36267,1.3172 0.12127,0 0.46417,0.071 0.39308,-0.034 1.18342,-0.276 l -1.81904,-1.6267 2.7432,-1.3339 1.40505,1.2336 q 0.58126,-0.8907 0.58126,-1.9362 0,-1.0119 -0.49763,-1.9528 -0.49762,-0.9409 -1.36741,-1.5263 -0.87398,-0.5646 -1.91941,-0.5813 z m -0.49762,-3.3035 q 0.0836,0 0.17145,0 1.96958,0 3.70081,0.8196 1.7814,0.8572 2.86028,2.4839 1.07888,1.6267 1.12906,3.8179 0,0.054 0,0.1045 0,1.2002 -0.39308,2.3292 -0.43071,1.1835 -1.04542,2.0574 l 2.36266,2.1034 -3.09864,1.4051 -1.7145,-1.6769 q -1.50541,1.012 -3.475,1.0789 -0.10454,0 -0.2049,0 -1.93613,0 -3.60045,-0.874 -1.74377,-0.9241 -2.77247,-2.5675 -1.0287,-1.6267 -1.07888,-3.6005 0,0 0,-0.1003 0,-1.4385 0.49763,-2.7223 0.49344,-1.3382 1.46777,-2.3836 0.97852,-1.0454 2.31667,-1.6601 1.33396,-0.598 2.87701,-0.6147 z" />
    <path
       inkscape:connector-curvature="0"
       id="path4192"
       style="font-style:normal;font-variant:normal;font-weight:normal;font-stretch:normal;font-size:medium;line-height:125%;font-family:Kabel;-inkscape-font-specification:Kabel;text-align:center;letter-spacing:0px;word-spacing:0px;text-anchor:middle;fill:#343031;fill-opacity:1;stroke:none;stroke-width:1px;stroke-linecap:butt;stroke-linejoin:miter;stroke-opacity:1"
       d="m 197.92376,1015.6414 0,-9.229 3.613,-0.3262 0,8.9572 q 0,2.2247 1.88594,2.2247 0.13382,0 0.28854,-0.017 1.18342,-0.1004 1.48869,-0.7862 0.30944,-0.6858 0.30944,-1.5932 l 0,-8.4262 3.65063,-0.3261 0,9.1286 q 0,2.6052 -1.55977,3.9559 -1.55978,1.3716 -4.0228,1.4552 -0.138,0 -0.25927,0 -1.50541,0 -2.68883,-0.5478 -1.28379,-0.5979 -1.98631,-1.7646 -0.71926,-1.1458 -0.71926,-2.7056 z" />
    <path
       inkscape:connector-curvature="0"
       id="path4194"
       style="font-style:normal;font-variant:normal;font-weight:normal;font-stretch:normal;font-size:medium;line-height:125%;font-family:Kabel;-inkscape-font-specification:Kabel;text-align:center;letter-spacing:0px;word-spacing:0px;text-anchor:middle;fill:#343031;fill-opacity:1;stroke:none;stroke-width:1px;stroke-linecap:butt;stroke-linejoin:miter;stroke-opacity:1"
       d="m 211.76102,1020.5089 0,-14.0631 3.52936,-0.3596 0,14.1467 -3.52936,0.276 z" />
    <path
       inkscape:connector-curvature="0"
       id="path4196"
       style="font-style:normal;font-variant:normal;font-weight:normal;font-stretch:normal;font-size:medium;line-height:125%;font-family:Kabel;-inkscape-font-specification:Kabel;text-align:center;letter-spacing:0px;word-spacing:0px;text-anchor:middle;fill:#343031;fill-opacity:1;stroke:none;stroke-width:1px;stroke-linecap:butt;stroke-linejoin:miter;stroke-opacity:1"
       d="m 227.73095,1006.5462 0.56453,3.9224 q -1.14579,-1.0454 -2.67211,-1.0454 -1.76468,0 -2.96483,1.2002 -1.14578,1.1499 -1.14578,2.8101 0,0.084 0,0.1714 0.10036,1.748 1.3716,2.7892 1.14578,0.9785 2.60102,0.9785 0.13799,0 0.27599,-0.017 1.48868,-0.1045 2.56756,-1.0454 l -0.53107,3.7844 q -0.94089,0.4307 -1.78141,0.4976 -0.44326,0.05 -0.87397,0.05 -1.17924,0 -2.29576,-0.3596 -1.50541,-0.4767 -2.67211,-1.5221 -1.16251,-1.0287 -1.78141,-2.4171 -0.63143,-1.3674 -0.63143,-2.8937 0,-1.4051 0.51435,-2.7056 0.51435,-1.3005 1.4385,-2.3125 0.90743,-0.9952 2.17449,-1.6099 1.26706,-0.6022 2.68884,-0.6691 l 0.73598,0 q 1.2336,0 2.41702,0.3931 z" />
    <path
       inkscape:connector-curvature="0"
       id="path4198"
       style="font-style:normal;font-variant:normal;font-weight:normal;font-stretch:normal;font-size:medium;line-height:125%;font-family:Kabel;-inkscape-font-specification:Kabel;text-align:center;letter-spacing:0px;word-spacing:0px;text-anchor:middle;fill:#343031;fill-opacity:1;stroke:none;stroke-width:1px;stroke-linecap:butt;stroke-linejoin:miter;stroke-opacity:1"
       d="m 234.04951,1013.8098 0,6.3897 -3.61718,0.3429 0,-14.0966 3.61718,-0.393 0,6.423 4.7086,-6.3561 3.52936,0.9576 -4.59152,6.0969 4.71279,6.5276 -3.70081,0.9953 -4.65842,-6.8873 z" />
    <path
       inkscape:connector-curvature="0"
       id="path4200"
       style="font-style:normal;font-variant:normal;font-weight:normal;font-stretch:normal;font-size:medium;line-height:125%;font-family:Kabel;-inkscape-font-specification:Kabel;text-align:center;letter-spacing:0px;word-spacing:0px;text-anchor:middle;fill:#343031;fill-opacity:1;stroke:none;stroke-width:1px;stroke-linecap:butt;stroke-linejoin:miter;stroke-opacity:1"
       d="m 254.75731,1020.2329 -5.61603,-0.033 0,-13.7537 4.11061,0 q 2.53411,0 3.95589,0.6482 1.40506,0.6523 1.55978,2.7097 0.0167,0.1506 0.0167,0.2886 0,0.8238 -0.3429,1.4218 -0.40981,0.7192 -0.8238,1.0454 -0.42653,0.3429 -0.64816,0.4432 0.0502,0.038 0.61471,0.3639 0.5478,0.3387 1.04542,0.9743 0.4809,0.6523 0.54781,1.6099 0.0167,0.2049 0.0167,0.4099 0,1.0956 -0.45998,1.9026 -0.56872,0.9576 -1.60996,1.4553 -1.06215,0.5143 -2.36684,0.5143 z m -1.30051,-5.6871 -0.87398,0 0,2.877 1.01197,0 q 1.06215,0 1.53887,-0.3763 0.43071,-0.3429 0.43071,-0.9911 0,-0.054 0,-0.1046 -0.0167,-0.7694 -0.53107,-1.0956 -0.53108,-0.3094 -1.5765,-0.3094 z m -0.0335,-5.4446 -0.84052,0 0,2.7725 0.87398,0 q 0.71925,0 1.25033,-0.4098 0.44744,-0.3597 0.44744,-0.9618 0,0 0,-0.1673 -0.0711,-0.7569 -0.51435,-0.9952 -0.46417,-0.2384 -1.21688,-0.2384 z" />
    <path
       inkscape:connector-curvature="0"
       id="path4202"
       style="font-style:normal;font-variant:normal;font-weight:normal;font-stretch:normal;font-size:medium;line-height:125%;font-family:Kabel;-inkscape-font-specification:Kabel;text-align:center;letter-spacing:0px;word-spacing:0px;text-anchor:middle;fill:#343031;fill-opacity:1;stroke:none;stroke-width:1px;stroke-linecap:butt;stroke-linejoin:miter;stroke-opacity:1"
       d="m 268.64057,1014.274 3.81789,5.2229 -3.64644,1.1291 -4.21516,-6.4566 0,6.097 -3.64645,0.2049 0,-14.0255 4.28207,0 q 5.3944,0 5.65366,4.0228 0.0167,0.1715 0.0167,0.3262 0,2.2289 -2.2623,3.4792 z m -4.04371,-1.4385 0.80707,0 q 0.94088,0 1.4385,-0.5855 0.46417,-0.531 0.46417,-1.2168 0,0 0,-0.1004 -0.0711,-1.7981 -1.97376,-1.7981 l -0.73598,0 0,3.7008 z" />
    <path
       inkscape:connector-curvature="0"
       id="path4204"
       style="font-style:normal;font-variant:normal;font-weight:normal;font-stretch:normal;font-size:medium;line-height:125%;font-family:Kabel;-inkscape-font-specification:Kabel;text-align:center;letter-spacing:0px;word-spacing:0px;text-anchor:middle;fill:#343031;fill-opacity:1;stroke:none;stroke-width:1px;stroke-linecap:butt;stroke-linejoin:miter;stroke-opacity:1"
       d="m 281.95093,1009.3563 q -1.07888,0.017 -1.98631,0.6147 -0.92416,0.6022 -1.43851,1.5765 -0.48089,0.8907 -0.48089,1.886 0,0.1003 0,0.2049 0.0502,1.0119 0.66907,1.8859 0.59798,0.8907 1.55977,1.3842 0.85307,0.4474 1.74378,0.4474 0.0878,0 0.17145,0 1.55977,-0.088 2.75992,-1.4218 1.04543,-1.15 1.04543,-2.5174 0,-0.2049 -0.0167,-0.414 -0.10454,-1.0077 -0.65235,-1.865 -0.56453,-0.8572 -1.45523,-1.334 -0.87398,-0.4474 -1.85249,-0.4474 0,0 -0.0669,0 z m 0.17145,-3.3035 q 2.01976,0.017 3.75099,1.0245 1.7145,1.0119 2.68883,2.6888 0.95761,1.6643 0.95761,3.6339 0,0 0,0.067 -0.0502,2.003 -1.07888,3.6506 -1.02451,1.6435 -2.75574,2.5843 -1.64341,0.8907 -3.4959,0.8907 -0.10037,0 -0.20491,0 -1.67686,-0.05 -3.06519,-0.6481 -1.38832,-0.6022 -2.4003,-1.6476 -1.00779,-1.0454 -1.50541,-2.3961 -0.44326,-1.2169 -0.44326,-2.5885 0,-0.138 0,-0.2718 0.0502,-1.9529 1.07888,-3.5796 1.02452,-1.6099 2.75574,-2.5173 1.68105,-0.8907 3.65063,-0.8907 0,0 0.0669,0 z" />
    <path
       inkscape:connector-curvature="0"
       id="path4206"
       style="font-style:normal;font-variant:normal;font-weight:normal;font-stretch:normal;font-size:medium;line-height:125%;font-family:Kabel;-inkscape-font-specification:Kabel;text-align:center;letter-spacing:0px;word-spacing:0px;text-anchor:middle;fill:#343031;fill-opacity:1;stroke:none;stroke-width:1px;stroke-linecap:butt;stroke-linejoin:miter;stroke-opacity:1"
       d="m 299.89045,1005.5217 3.47917,7.1214 2.10758,-6.5903 3.50845,0.393 -5.18949,14.5942 -4.00607,-8.1711 -4.07717,8.1711 -4.96786,-14.5942 3.57954,-0.4307 1.98631,6.6991 3.57954,-7.1925 z" />
    <path
       inkscape:connector-curvature="0"
       id="path4208"
       style="font-style:normal;font-variant:normal;font-weight:normal;font-stretch:normal;font-size:medium;line-height:125%;font-family:Kabel;-inkscape-font-specification:Kabel;text-align:center;letter-spacing:0px;word-spacing:0px;text-anchor:middle;fill:#343031;fill-opacity:1;stroke:none;stroke-width:1px;stroke-linecap:butt;stroke-linejoin:miter;stroke-opacity:1"
       d="m 310.0938,1020.5424 0,-15.0207 8.70213,7.895 0,-6.9709 3.47499,-0.3596 0,15.121 -8.63104,-7.7403 0,6.766 -3.54608,0.3095 z" />
    <path
       inkscape:connector-curvature="0"
       id="path4210"
       style="font-style:normal;font-variant:normal;font-weight:normal;font-stretch:normal;font-size:medium;line-height:125%;font-family:Kabel;-inkscape-font-specification:Kabel;text-align:center;letter-spacing:0px;word-spacing:0px;text-anchor:middle;fill:#343031;fill-opacity:1;stroke:none;stroke-width:1px;stroke-linecap:butt;stroke-linejoin:miter;stroke-opacity:1"
       d="m 329.53037,1020.5758 0,-14.13 7.72361,0 0.87397,3.0485 -5.01804,0 0,2.9439 3.71753,0 0,3.1196 -3.71753,0 0,4.6751 -3.57954,0.3429 z" />
    <path
       inkscape:connector-curvature="0"
       id="path4212"
       style="font-style:normal;font-variant:normal;font-weight:normal;font-stretch:normal;font-size:medium;line-height:125%;font-family:Kabel;-inkscape-font-specification:Kabel;text-align:center;letter-spacing:0px;word-spacing:0px;text-anchor:middle;fill:#343031;fill-opacity:1;stroke:none;stroke-width:1px;stroke-linecap:butt;stroke-linejoin:miter;stroke-opacity:1"
       d="m 347.21898,1009.3563 q -1.07888,0.017 -1.98631,0.6147 -0.92416,0.6022 -1.43851,1.5765 -0.48089,0.8907 -0.48089,1.886 0,0.1003 0,0.2049 0.0502,1.0119 0.66907,1.8859 0.59798,0.8907 1.55978,1.3842 0.85306,0.4474 1.74377,0.4474 0.0878,0 0.17145,0 1.55977,-0.088 2.75992,-1.4218 1.04543,-1.15 1.04543,-2.5174 0,-0.2049 -0.0167,-0.414 -0.10454,-1.0077 -0.65235,-1.865 -0.56453,-0.8572 -1.45523,-1.334 -0.87397,-0.4474 -1.85249,-0.4474 0,0 -0.0669,0 z m 0.17145,-3.3035 q 2.01976,0.017 3.75099,1.0245 1.7145,1.0119 2.68883,2.6888 0.95761,1.6643 0.95761,3.6339 0,0 0,0.067 -0.0502,2.003 -1.07888,3.6506 -1.02451,1.6435 -2.75574,2.5843 -1.64341,0.8907 -3.4959,0.8907 -0.10036,0 -0.20491,0 -1.67686,-0.05 -3.06519,-0.6481 -1.38832,-0.6022 -2.40029,-1.6476 -1.0078,-1.0454 -1.50542,-2.3961 -0.44326,-1.2169 -0.44326,-2.5885 0,-0.138 0,-0.2718 0.0502,-1.9529 1.07888,-3.5796 1.02452,-1.6099 2.75574,-2.5173 1.68105,-0.8907 3.65063,-0.8907 0,0 0.0669,0 z" />
    <path
       inkscape:connector-curvature="0"
       id="path4214"
       style="font-style:normal;font-variant:normal;font-weight:normal;font-stretch:normal;font-size:medium;line-height:125%;font-family:Kabel;-inkscape-font-specification:Kabel;text-align:center;letter-spacing:0px;word-spacing:0px;text-anchor:middle;fill:#343031;fill-opacity:1;stroke:none;stroke-width:1px;stroke-linecap:butt;stroke-linejoin:miter;stroke-opacity:1"
       d="m 356.35599,1006.4458 3.57954,-1.0956 3.15301,4.947 3.30355,-5.1184 3.40808,1.267 -4.67514,6.628 4.88423,7.1591 -3.61717,1.2336 -3.37464,-5.3777 -3.61299,5.5157 -3.475,-1.3716 5.0515,-7.0922 -4.62497,-6.6949 z" />
    <path
       inkscape:connector-curvature="0"
       id="path4216"
       style="font-style:normal;font-variant:normal;font-weight:normal;font-stretch:normal;font-size:medium;line-height:125%;font-family:Kabel;-inkscape-font-specification:Kabel;text-align:center;letter-spacing:0px;word-spacing:0px;text-anchor:middle;fill:#343031;fill-opacity:1;stroke:none;stroke-width:1px;stroke-linecap:butt;stroke-linejoin:miter;stroke-opacity:1"
       d="m 380.5848,1015.2483 0,-8.8359 3.61299,-0.3262 0,8.8192 q 0,1.6811 -0.39308,2.8436 -0.41398,1.1667 -1.49286,1.9194 -1.25033,0.8405 -3.01083,0.8405 -0.39726,0 -0.96179,-0.084 -0.56035,-0.088 -0.56453,-0.088 l 0,0 -0.87398,-3.4123 q 0.12127,0.071 0.84052,0.1923 0.49763,0.084 0.90743,0.084 0.17145,0 0.32618,-0.017 1.04542,-0.1045 1.33396,-0.5645 0.27599,-0.4642 0.27599,-1.3716 z" />
    <path
       inkscape:connector-curvature="0"
       id="path4218"
       style="font-style:normal;font-variant:normal;font-weight:normal;font-stretch:normal;font-size:medium;line-height:125%;font-family:Kabel;-inkscape-font-specification:Kabel;text-align:center;letter-spacing:0px;word-spacing:0px;text-anchor:middle;fill:#343031;fill-opacity:1;stroke:none;stroke-width:1px;stroke-linecap:butt;stroke-linejoin:miter;stroke-opacity:1"
       d="m 385.79938,1015.6414 0,-9.229 3.61299,-0.3262 0,8.9572 q 0,2.2247 1.88595,2.2247 0.13382,0 0.28854,-0.017 1.18342,-0.1004 1.48869,-0.7862 0.30944,-0.6858 0.30944,-1.5932 l 0,-8.4262 3.65063,-0.3261 0,9.1286 q 0,2.6052 -1.55978,3.9559 -1.55977,1.3716 -4.0228,1.4552 -0.13799,0 -0.25926,0 -1.50541,0 -2.68884,-0.5478 -1.28378,-0.5979 -1.98631,-1.7646 -0.71925,-1.1458 -0.71925,-2.7056 z" />
    <path
       inkscape:connector-curvature="0"
       id="path4220"
       style="font-style:normal;font-variant:normal;font-weight:normal;font-stretch:normal;font-size:medium;line-height:125%;font-family:Kabel;-inkscape-font-specification:Kabel;text-align:center;letter-spacing:0px;word-spacing:0px;text-anchor:middle;fill:#343031;fill-opacity:1;stroke:none;stroke-width:1px;stroke-linecap:butt;stroke-linejoin:miter;stroke-opacity:1"
       d="m 398.74594,1020.2329 3.76771,-14.523 4.42006,9.0408 4.59151,-9.0074 3.64645,14.4562 -3.54608,0.3094 -1.14579,-6.1346 -3.54609,6.9542 -3.44154,-7.0211 -1.2336,6.3186 -3.51263,-0.3931 z" />
    <path
       inkscape:connector-curvature="0"
       id="path4222"
       style="font-style:normal;font-variant:normal;font-weight:normal;font-stretch:normal;font-size:medium;line-height:125%;font-family:Kabel;-inkscape-font-specification:Kabel;text-align:center;letter-spacing:0px;word-spacing:0px;text-anchor:middle;fill:#343031;fill-opacity:1;stroke:none;stroke-width:1px;stroke-linecap:butt;stroke-linejoin:miter;stroke-opacity:1"
       d="m 421.25187,1009.4943 -0.49763,0 0,2.9439 0.49763,0 q 2.34593,0 2.34593,-1.4719 0,0 0,-0.034 -0.0167,-0.9074 -0.63562,-1.1834 -0.63143,-0.2551 -1.71031,-0.2551 z m 2.44629,5.7206 q -0.49762,0.1212 -2.00303,0.2049 -0.54781,-0.034 -0.70253,-0.034 -0.17145,0 -0.27181,0 l 0,4.8132 -3.58372,0.3094 0,-14.0631 3.96007,0 q 6.00911,0 6.00911,4.5205 0,1.3381 -0.78616,2.5508 -0.78616,1.2336 -2.62193,1.6978 z" />
    <path
       inkscape:connector-curvature="0"
       id="path4224"
       style="font-style:normal;font-variant:normal;font-weight:normal;font-stretch:normal;font-size:medium;line-height:125%;font-family:Kabel;-inkscape-font-specification:Kabel;text-align:center;letter-spacing:0px;word-spacing:0px;text-anchor:middle;fill:#343031;fill-opacity:1;stroke:none;stroke-width:1px;stroke-linecap:butt;stroke-linejoin:miter;stroke-opacity:1"
       d="m 428.3524,1020.2329 0,-13.7871 8.22124,0 0.70252,3.0485 -5.37767,0 0,2.1745 3.86808,0 0,3.0484 -3.90153,0 0,2.4672 5.78748,0 -0.90743,3.0485 -8.39269,0 z" />
    <path
       inkscape:connector-curvature="0"
       id="path4226"
       style="font-style:normal;font-variant:normal;font-weight:normal;font-stretch:normal;font-size:medium;line-height:125%;font-family:Kabel;-inkscape-font-specification:Kabel;text-align:center;letter-spacing:0px;word-spacing:0px;text-anchor:middle;fill:#343031;fill-opacity:1;stroke:none;stroke-width:1px;stroke-linecap:butt;stroke-linejoin:miter;stroke-opacity:1"
       d="m 442.93818,1009.5277 0,7.4853 q 2.45047,0 3.4959,-1.0454 1.04543,-1.0455 1.04543,-2.7223 l 0,-0.1046 q -0.0544,-2.0532 -1.21688,-2.8268 -1.18342,-0.7527 -3.32445,-0.7862 z m 0.29272,10.7052 -3.97262,0 0,-13.7871 4.17752,0 q 2.27903,0 4.00607,0.7695 1.73123,0.7694 2.67211,2.2957 0.92834,1.5431 0.94507,3.7677 0,1.5765 -0.6189,2.8938 -0.61471,1.3214 -1.67686,2.2121 -1.06215,0.8907 -2.51739,1.3716 -1.45523,0.4767 -3.015,0.4767 z" />
    <path
       inkscape:connector-curvature="0"
       id="path4228"
       style="font-style:normal;font-variant:normal;font-weight:normal;font-stretch:normal;font-size:medium;line-height:125%;font-family:Kabel;-inkscape-font-specification:Kabel;text-align:center;letter-spacing:0px;word-spacing:0px;text-anchor:middle;fill:#343031;fill-opacity:1;stroke:none;stroke-width:1px;stroke-linecap:butt;stroke-linejoin:miter;stroke-opacity:1"
       d="m 465.87901,1009.3563 q -1.07888,0.017 -1.98631,0.6147 -0.92415,0.6022 -1.4385,1.5765 -0.4809,0.8907 -0.4809,1.886 0,0.1003 0,0.2049 0.0502,1.0119 0.66907,1.8859 0.59799,0.8907 1.55978,1.3842 0.85307,0.4474 1.74377,0.4474 0.0878,0 0.17145,0 1.55978,-0.088 2.75993,-1.4218 1.04542,-1.15 1.04542,-2.5174 0,-0.2049 -0.0167,-0.414 -0.10454,-1.0077 -0.65234,-1.865 -0.56453,-0.8572 -1.45523,-1.334 -0.87398,-0.4474 -1.8525,-0.4474 0,0 -0.0669,0 z m 0.17145,-3.3035 q 2.01977,0.017 3.75099,1.0245 1.7145,1.0119 2.68884,2.6888 0.95761,1.6643 0.95761,3.6339 0,0 0,0.067 -0.0502,2.003 -1.07888,3.6506 -1.02452,1.6435 -2.75574,2.5843 -1.64341,0.8907 -3.49591,0.8907 -0.10036,0 -0.2049,0 -1.67687,-0.05 -3.06519,-0.6481 -1.38833,-0.6022 -2.4003,-1.6476 -1.00779,-1.0454 -1.50541,-2.3961 -0.44326,-1.2169 -0.44326,-2.5885 0,-0.138 0,-0.2718 0.0502,-1.9529 1.07887,-3.5796 1.02452,-1.6099 2.75575,-2.5173 1.68104,-0.8907 3.65063,-0.8907 0,0 0.0669,0 z" />
    <path
       inkscape:connector-curvature="0"
       id="path4230"
       style="font-style:normal;font-variant:normal;font-weight:normal;font-stretch:normal;font-size:medium;line-height:125%;font-family:Kabel;-inkscape-font-specification:Kabel;text-align:center;letter-spacing:0px;word-spacing:0px;text-anchor:middle;fill:#343031;fill-opacity:1;stroke:none;stroke-width:1px;stroke-linecap:butt;stroke-linejoin:miter;stroke-opacity:1"
       d="m 474.58951,1006.4458 3.62972,-0.6356 2.51739,7.3305 2.84355,-7.3639 3.613,0.669 -6.59455,14.9162 -6.00911,-14.9162 z" />
    <path
       inkscape:connector-curvature="0"
       id="path4232"
       style="font-style:normal;font-variant:normal;font-weight:normal;font-stretch:normal;font-size:medium;line-height:125%;font-family:Kabel;-inkscape-font-specification:Kabel;text-align:center;letter-spacing:0px;word-spacing:0px;text-anchor:middle;fill:#343031;fill-opacity:1;stroke:none;stroke-width:1px;stroke-linecap:butt;stroke-linejoin:miter;stroke-opacity:1"
       d="m 488.43514,1020.2329 0,-13.7871 8.22123,0 0.70253,3.0485 -5.37768,0 0,2.1745 3.86808,0 0,3.0484 -3.90153,0 0,2.4672 5.78748,0 -0.90743,3.0485 -8.39268,0 z" />
    <path
       inkscape:connector-curvature="0"
       id="path4234"
       style="font-style:normal;font-variant:normal;font-weight:normal;font-stretch:normal;font-size:medium;line-height:125%;font-family:Kabel;-inkscape-font-specification:Kabel;text-align:center;letter-spacing:0px;word-spacing:0px;text-anchor:middle;fill:#343031;fill-opacity:1;stroke:none;stroke-width:1px;stroke-linecap:butt;stroke-linejoin:miter;stroke-opacity:1"
       d="m 507.09807,1014.274 3.8179,5.2229 -3.64645,1.1291 -4.21516,-6.4566 0,6.097 -3.64644,0.2049 0,-14.0255 4.28206,0 q 5.3944,0 5.65367,4.0228 0.0167,0.1715 0.0167,0.3262 0,2.2289 -2.2623,3.4792 z m -4.04371,-1.4385 0.80707,0 q 0.94088,0 1.43851,-0.5855 0.46417,-0.531 0.46417,-1.2168 0,0 0,-0.1004 -0.0711,-1.7981 -1.97377,-1.7981 l -0.73598,0 0,3.7008 z" />
    <path
       inkscape:connector-curvature="0"
       id="path4236"
       style="font-style:normal;font-variant:normal;font-weight:normal;font-stretch:normal;font-size:medium;line-height:125%;font-family:Kabel;-inkscape-font-specification:Kabel;text-align:center;letter-spacing:0px;word-spacing:0px;text-anchor:middle;fill:#343031;fill-opacity:1;stroke:none;stroke-width:1px;stroke-linecap:butt;stroke-linejoin:miter;stroke-opacity:1"
       d="m 529.18165,1009.7661 -3.44154,0 0,10.4668 -3.54609,0.3095 0,-10.7763 -3.71753,0 0.92416,-3.3203 9.781,0 0,3.3203 z" />
    <path
       inkscape:connector-curvature="0"
       id="path4238"
       style="font-style:normal;font-variant:normal;font-weight:normal;font-stretch:normal;font-size:medium;line-height:125%;font-family:Kabel;-inkscape-font-specification:Kabel;text-align:center;letter-spacing:0px;word-spacing:0px;text-anchor:middle;fill:#343031;fill-opacity:1;stroke:none;stroke-width:1px;stroke-linecap:butt;stroke-linejoin:miter;stroke-opacity:1"
       d="m 538.82049,1020.5424 0,-5.8252 -4.34898,0 0,5.5157 -3.68408,0.3095 0,-14.0966 3.68408,-0.2927 0,5.3777 4.34898,0 0,-5.085 3.70081,-0.3261 0,14.1132 -3.70081,0.3095 z" />
    <path
       inkscape:connector-curvature="0"
       id="path4240"
       style="font-style:normal;font-variant:normal;font-weight:normal;font-stretch:normal;font-size:medium;line-height:125%;font-family:Kabel;-inkscape-font-specification:Kabel;text-align:center;letter-spacing:0px;word-spacing:0px;text-anchor:middle;fill:#343031;fill-opacity:1;stroke:none;stroke-width:1px;stroke-linecap:butt;stroke-linejoin:miter;stroke-opacity:1"
       d="m 544.1689,1020.2329 0,-13.7871 8.22123,0 0.70253,3.0485 -5.37767,0 0,2.1745 3.86807,0 0,3.0484 -3.90153,0 0,2.4672 5.78748,0 -0.90743,3.0485 -8.39268,0 z" />
    <path
       inkscape:connector-curvature="0"
       id="path4242"
       style="font-style:normal;font-variant:normal;font-weight:normal;font-stretch:normal;font-size:medium;line-height:125%;font-family:Kabel;-inkscape-font-specification:Kabel;text-align:center;letter-spacing:0px;word-spacing:0px;text-anchor:middle;fill:#343031;fill-opacity:1;stroke:none;stroke-width:1px;stroke-linecap:butt;stroke-linejoin:miter;stroke-opacity:1"
       d="m 564.77215,1006.0862 0,10.839 5.42785,0 -0.90743,3.3077 -8.23795,0 0,-13.7871 3.71753,-0.3596 z" />
    <path
       inkscape:connector-curvature="0"
       id="path4244"
       style="font-style:normal;font-variant:normal;font-weight:normal;font-stretch:normal;font-size:medium;line-height:125%;font-family:Kabel;-inkscape-font-specification:Kabel;text-align:center;letter-spacing:0px;word-spacing:0px;text-anchor:middle;fill:#343031;fill-opacity:1;stroke:none;stroke-width:1px;stroke-linecap:butt;stroke-linejoin:miter;stroke-opacity:1"
       d="m 571.36671,1020.2329 7.55216,-14.8158 7.56888,14.8158 -3.5419,0.7694 -1.50959,-3.1488 -5.1895,0 -1.33396,3.1865 -3.54609,-0.8071 z m 8.85267,-5.294 -1.40505,-3.0987 -1.36742,3.0987 2.77247,0 z" />
    <path
       inkscape:connector-curvature="0"
       id="path4246"
       style="font-style:normal;font-variant:normal;font-weight:normal;font-stretch:normal;font-size:medium;line-height:125%;font-family:Kabel;-inkscape-font-specification:Kabel;text-align:center;letter-spacing:0px;word-spacing:0px;text-anchor:middle;fill:#343031;fill-opacity:1;stroke:none;stroke-width:1px;stroke-linecap:butt;stroke-linejoin:miter;stroke-opacity:1"
       d="m 589.09294,1006.4458 10.63826,0 -6.38965,10.517 6.2851,0 -0.8907,3.3036 -11.39096,0 6.23492,-10.7387 -5.22295,0 0.73598,-3.0819 z" />
    <path
       inkscape:connector-curvature="0"
       id="path4248"
       style="font-style:normal;font-variant:normal;font-weight:normal;font-stretch:normal;font-size:medium;line-height:125%;font-family:Kabel;-inkscape-font-specification:Kabel;text-align:center;letter-spacing:0px;word-spacing:0px;text-anchor:middle;fill:#343031;fill-opacity:1;stroke:none;stroke-width:1px;stroke-linecap:butt;stroke-linejoin:miter;stroke-opacity:1"
       d="m 607.72243,1012.0953 2.73902,-6.0425 3.49591,1.1625 -6.93745,14.0965 -3.76772,-0.736 2.53411,-4.8299 -5.32749,-8.4972 3.57954,-1.3339 3.68408,6.1805 z" />
    <path
       inkscape:connector-curvature="0"
       id="path4250"
       style="font-style:normal;font-variant:normal;font-weight:normal;font-stretch:normal;font-size:medium;line-height:125%;font-family:Kabel;-inkscape-font-specification:Kabel;text-align:center;letter-spacing:0px;word-spacing:0px;text-anchor:middle;fill:#343031;fill-opacity:1;stroke:none;stroke-width:1px;stroke-linecap:butt;stroke-linejoin:miter;stroke-opacity:1"
       d="m 624.39072,1009.5277 0,7.4853 q 2.45048,0 3.49591,-1.0454 1.04542,-1.0455 1.04542,-2.7223 l 0,-0.1046 q -0.0544,-2.0532 -1.21687,-2.8268 -1.18343,-0.7527 -3.32446,-0.7862 z m 0.29272,10.7052 -3.97262,0 0,-13.7871 4.17752,0 q 2.27903,0 4.00608,0.7695 1.73122,0.7694 2.67211,2.2957 0.92833,1.5431 0.94506,3.7677 0,1.5765 -0.61889,2.8938 -0.61471,1.3214 -1.67686,2.2121 -1.06216,0.8907 -2.51739,1.3716 -1.45523,0.4767 -3.01501,0.4767 z" />
    <path
       inkscape:connector-curvature="0"
       id="path4252"
       style="font-style:normal;font-variant:normal;font-weight:normal;font-stretch:normal;font-size:medium;line-height:125%;font-family:Kabel;-inkscape-font-specification:Kabel;text-align:center;letter-spacing:0px;word-spacing:0px;text-anchor:middle;fill:#343031;fill-opacity:1;stroke:none;stroke-width:1px;stroke-linecap:butt;stroke-linejoin:miter;stroke-opacity:1"
       d="m 641.7448,1009.3563 q -1.07888,0.017 -1.98631,0.6147 -0.92416,0.6022 -1.43851,1.5765 -0.48089,0.8907 -0.48089,1.886 0,0.1003 0,0.2049 0.0502,1.0119 0.66907,1.8859 0.59798,0.8907 1.55977,1.3842 0.85307,0.4474 1.74377,0.4474 0.0878,0 0.17145,0 1.55978,-0.088 2.75993,-1.4218 1.04543,-1.15 1.04543,-2.5174 0,-0.2049 -0.0167,-0.414 -0.10454,-1.0077 -0.65235,-1.865 -0.56453,-0.8572 -1.45523,-1.334 -0.87398,-0.4474 -1.8525,-0.4474 0,0 -0.0669,0 z m 0.17145,-3.3035 q 2.01976,0.017 3.75099,1.0245 1.71449,1.0119 2.68883,2.6888 0.95761,1.6643 0.95761,3.6339 0,0 0,0.067 -0.0502,2.003 -1.07888,3.6506 -1.02452,1.6435 -2.75574,2.5843 -1.64341,0.8907 -3.49591,0.8907 -0.10036,0 -0.2049,0 -1.67686,-0.05 -3.06519,-0.6481 -1.38832,-0.6022 -2.4003,-1.6476 -1.00779,-1.0454 -1.50541,-2.3961 -0.44326,-1.2169 -0.44326,-2.5885 0,-0.138 0,-0.2718 0.0502,-1.9529 1.07888,-3.5796 1.02452,-1.6099 2.75574,-2.5173 1.68105,-0.8907 3.65063,-0.8907 0,0 0.0669,0 z" />
    <path
       inkscape:connector-curvature="0"
       id="path4254"
       style="font-style:normal;font-variant:normal;font-weight:normal;font-stretch:normal;font-size:medium;line-height:125%;font-family:Kabel;-inkscape-font-specification:Kabel;text-align:center;letter-spacing:0px;word-spacing:0px;text-anchor:middle;fill:#343031;fill-opacity:1;stroke:none;stroke-width:1px;stroke-linecap:butt;stroke-linejoin:miter;stroke-opacity:1"
       d="m 663.79908,1008.1227 -2.10758,2.6386 q -1.40505,-1.405 -3.27427,-1.405 -0.0836,0 -0.17145,0 -0.94088,0.017 -1.76468,0.5813 -0.81961,0.5645 -1.31724,1.4552 -0.49762,0.9116 -0.49762,1.8859 0,1.7313 1.14997,2.877 1.12906,1.1667 2.89374,1.1667 0.48089,0 1.20015,-0.1547 0.71925,-0.1547 0.76943,-0.2049 l 0,-2.0574 -3.54608,0 1.01197,-2.8435 6.0802,0 0,7.1256 q -0.0669,0.071 -0.87398,0.4307 -0.8238,0.3596 -2.09085,0.6649 -1.26706,0.3094 -2.65538,0.3094 -2.1034,0 -3.83463,-0.9743 -1.74795,-0.9785 -2.72229,-2.6554 -0.96179,-1.6476 -0.96179,-3.5795 0,-0.038 0,-0.071 0.0335,-1.9863 0.97852,-3.613 0.92416,-1.6267 2.58429,-2.6052 1.64341,-0.9576 3.6339,-0.9743 0,0 0.10037,0 2.21212,0 3.4959,0.6858 1.31724,0.7192 1.9194,1.3172 z" />
  </g>
</svg>
