<?xml version="1.0" encoding="UTF-8" standalone="no"?>
<!DOCTYPE svg PUBLIC "-//W3C//DTD SVG 20010904//EN"
"http://www.w3.org/TR/2001/REC-SVG-20010904/DTD/svg10.dtd">
<!-- Creator: CorelDRAW -->
<svg
   xml:space="preserve"
   x="-15.1158in"
   y="-12.8267in"
   width="11.3717in"
   height="3.95661in"
   style="shape-rendering:geometricPrecision; text-rendering:geometricPrecision; image-rendering:optimizeQuality"
   viewBox="-15116 0 11372 3956"
   xmlns="http://www.w3.org/2000/svg"
   xmlns:xml="http://www.w3.org/XML/1998/namespace"
   xmlns:sodipodi="http://sodipodi.sourceforge.net/DTD/sodipodi-0.dtd"
   xmlns:inkscape="http://www.inkscape.org/namespaces/inkscape"
   xmlns:xlink="http://www.w3.org/1999/xlink"
   id="svg2411"
   sodipodi:version="0.32"
   inkscape:version="0.39"
   xmlns:rdf="http://www.w3.org/1999/02/22-rdf-syntax-ns#"
   xmlns:cc="http://web.resource.org/cc/"
   xmlns:dc="http://purl.org/dc/elements/1.1/"
   sodipodi:docname="kdelogo_lineart_variations.svg"
   sodipodi:docbase="/home/jr/tmp/kdelogo_new_lineart">
  <sodipodi:namedview
     id="base"
     pagecolor="#ffffff"
     bordercolor="#666666"
     borderopacity="1.0"
     inkscape:pageopacity="0.0"
     inkscape:pageshadow="2"
     inkscape:zoom="0.43415836"
     inkscape:cx="305.25953"
     inkscape:cy="220.10029"
     inkscape:window-width="640"
     inkscape:window-height="525"
     inkscape:window-x="342"
     inkscape:window-y="0" />
  <defs
     id="defs2413">
  <style
   type="text/css"
   id="style2415">
   
    .fil0 {fill:#0093DD}
    .fil2 {fill:#FFFFFF}
    .fil1 {fill:#1F1A17}
   
  </style>

 </defs>
  <path
     id="30943800"
     class="fil1"
     d="M-14014 606l489 -36 0 881 658 -872 525 133 -667 845 658 917 -507 151 -667 -952 0 872 -489 62 0 -2001z" />
  <path
     id="30943888"
     class="fil1"
     d="M-13129 2405c-139,202 -372,334 -634,334 -424,0 -770,-345 -770,-769 0,-300 168,-558 418,-685l0 -219c-13,5 -25,10 -37,15 -43,19 -85,42 -124,67l-314 -221 -211 203 218 325c-56,87 -97,184 -122,287l-399 74 -12 295 407 72c23,104 64,202 118,294l-245 343 211 215 355 -241c83,53 174,92 271,117 23,5 19,6 24,29l60 333c10,27 11,63 48,63 77,0 155,0 232,0 35,0 38,-39 43,-61l57 -337c2,-24 0,-26 21,-32 98,-26 186,-65 271,-117l343 242 211 -215 -84 -116 -125 38 -231 -333z" />
  <path
     id="30943976"
     class="fil1"
     d="M-12743 1759l334 57 3 295 -84 15 -253 -367z" />
  <g
     id="g2447"
     style="fill:#0093dd;fill-opacity:1.0000000;">
    <path
   id="30944416"
   class="fil0"
   d="M-10429 487l499 -36c0,300 0,600 0,899 200,-301 421,-600 672,-890l536 136c-240,268 -485,565 -681,863 188,318 396,608 672,936l-518 154c-290,-324 -464,-636 -681,-972l0 891 -499 63 0 -2044z"
   style="fill:#0093dd;fill-opacity:1.0000000;" />

    <path
   id="30944504"
   class="fil0"
   d="M-9925 2961c293,-62 219,-151 458,-12l156 110c27,14 54,40 82,13 58,-56 116,-113 174,-169 26,-26 -1,-57 -13,-77 0,0 -1,-1 -1,-1l-113 -159 -75 27c-19,13 -43,6 -65,-23l-165 -216c-152,210 -398,347 -676,347 -459,0 -834,-375 -834,-834 0,-326 189,-609 463,-746l0 -190c-10,4 -19,7 -28,11 -106,43 -114,64 -289,-38l-156 -109c-27,-14 -54,-40 -82,-13 -58,57 -116,113 -173,170 -26,26 0,57 12,77l118 169 87 124c14,16 18,18 12,31 -8,12 -15,24 -22,37 -116,200 -36,214 -283,280l-188 31c-29,10 -66,11 -67,49 -1,81 -2,162 -3,243 -1,37 40,40 63,46l203 36 149 27c22,3 26,1 30,16 62,268 144,204 9,437l-110 156c-13,27 -40,54 -13,82 57,58 113,116 170,173 26,27 57,0 77,-12l169 -118 124 -87c17,-14 19,-18 33,-11 249,157 259,45 333,310l34 187c10,29 11,67 49,67 81,0 162,0 243,0 37,0 39,-41 45,-64l34 -203 25 -149c1,-14 1,-21 4,-25zm303 -126c-2,0 -3,0 -5,1 1,-1 2,-2 3,-2l2 1zm-288 119c-4,2 -9,4 -14,6 2,-2 7,-4 14,-6z"
   style="fill:#0093dd;fill-opacity:1.0000000;" />

    <path
   id="30944592"
   class="fil0"
   d="M-10158 2740c263,0 495,-133 634,-335l-10 -16c-163,180 -344,297 -625,304 -349,6 -701,-306 -704,-714 -2,-262 119,-440 328,-568l0 -111c-234,133 -392,384 -392,670 0,424 345,770 769,770z"
   style="fill:#0093dd;fill-opacity:1.0000000;" />

   </g>
  <g
     id="g2548">
 
 
  
   
    <path
   id="30943536"
   class="fil0"
   d="M-7274 164l3083 0c155,0 282,127 282,282l0 3064c0,155 -127,282 -282,282l-3083 0c-155,0 -283,-127 -283,-282l0 -3064c0,-155 128,-282 283,-282zm-35 -164l3153 0c226,0 412,185 412,412l0 3132c0,227 -186,412 -412,412l-3153 0c-227,0 -412,-185 -412,-412l0 -3132c0,-227 185,-412 412,-412z"
   style="fill:#0093dd;fill-opacity:1.0000000;" />

    <path
   id="30943624"
   class="fil0"
   d="M-7268 226l3071 0c124,0 225,102 225,226l0 3052c0,124 -101,226 -225,226l-3071 0c-124,0 -226,-102 -226,-226l0 -3052c0,-124 102,-226 226,-226z"
   style="fill:#0093dd;fill-opacity:1.0000000;stroke:#ffffff;stroke-opacity:1.0000000;stroke-width:41.667766;stroke-miterlimit:4.0000000;stroke-dasharray:none;" />

   
   
   
   
   <g
   id="g2438"
   style="fill:#ffffff;fill-opacity:1.0000000;">
    <path
   id="30944064"
   class="fil2"
   d="M-6032 540l499 -37c0,300 0,600 0,900 200,-301 422,-601 672,-890l537 135c-240,269 -485,566 -682,863 189,318 396,608 672,937l-517 154c-290,-325 -465,-636 -682,-972l0 890 -499 64 0 -2044z"
   style="fill:#ffffff;fill-opacity:1.0000000;" />

    <path
   id="30944152"
   class="fil2"
   d="M-5527 3014c292,-62 219,-151 458,-12l155 110c27,14 54,40 82,13 58,-56 116,-113 174,-169 26,-26 -1,-57 -13,-78 0,0 0,0 -1,0l-113 -159 -75 27c-18,13 -43,6 -65,-23l-165 -216c-152,210 -398,347 -676,347 -459,0 -834,-375 -834,-834 0,-326 189,-609 463,-746l0 -190c-10,3 -19,7 -28,11 -106,42 -113,63 -289,-38l-156 -110c-27,-13 -54,-39 -82,-12 -58,56 -115,113 -173,170 -26,25 1,57 13,77l118 168 86 124c14,17 18,19 12,32 -7,12 -15,24 -22,37 -115,199 -36,214 -283,279l-188 32c-28,10 -66,10 -67,49 -1,81 -2,162 -3,243 0,36 41,40 63,46l203 36 149 27c22,2 26,1 31,15 61,269 143,204 8,438l-110 156c-13,27 -40,54 -13,82 57,58 114,115 170,173 26,26 57,-1 78,-13l168 -117 124 -87c17,-14 19,-18 33,-11 249,157 259,44 333,310l34 187c10,29 11,66 50,67 81,0 161,0 242,0 37,0 40,-41 45,-64l34 -203 25 -149c2,-14 1,-21 5,-25zm302 -127c-2,1 -3,1 -5,2 1,-1 3,-2 4,-3l1 1zm-287 119c-5,3 -10,5 -15,7 3,-3 7,-4 15,-7z"
   style="fill:#ffffff;fill-opacity:1.0000000;" />

    <path
   id="30944240"
   class="fil2"
   d="M-5761 2793c263,0 496,-133 634,-335l-10 -16c-163,180 -344,297 -625,303 -349,7 -701,-305 -704,-714 -2,-262 119,-439 328,-567l0 -111c-234,132 -392,383 -392,670 0,424 345,770 769,770z"
   style="fill:#ffffff;fill-opacity:1.0000000;" />

   </g>

   
  
 
</g>
  <metadata
     id="metadata2459">
    <rdf:RDF
       id="RDF2460">
      <cc:Work
         rdf:about=""
         id="Work2461">
        <dc:format
           id="format2462">image/svg+xml</dc:format>
        <dc:type
           id="type2464"
           rdf:resource="http://purl.org/dc/dcmitype/StillImage" />
      </cc:Work>
    </rdf:RDF>
  </metadata>
</svg>
